%YAML 1.1
%TAG !u! tag:unity3d.com,2011:
--- !u!65 &7309588041069295073
BoxCollider:
  m_ObjectHideFlags: 0
  m_CorrespondingSourceObject: {fileID: 0}
  m_PrefabInstance: {fileID: 0}
  m_PrefabAsset: {fileID: 0}
  m_GameObject: {fileID: 756798884024028045}
  m_Material: {fileID: 0}
  m_IsTrigger: 0
  m_Enabled: 1
  serializedVersion: 2
  m_Size: {x: 1.5, y: 3, z: 0.19999999}
  m_Center: {x: 0, y: 0, z: 0}
--- !u!114 &-4059448785846884780
MonoBehaviour:
  m_ObjectHideFlags: 0
  m_CorrespondingSourceObject: {fileID: 0}
  m_PrefabInstance: {fileID: 0}
  m_PrefabAsset: {fileID: 0}
  m_GameObject: {fileID: 756798884024028045}
  m_Enabled: 1
  m_EditorHideFlags: 0
  m_Script: {fileID: 11500000, guid: 5ca9e8b378498434b980e789be3c91c5, type: 3}
  m_Name: 
  m_EditorClassIdentifier: 
--- !u!1001 &8764389176300098180
PrefabInstance:
  m_ObjectHideFlags: 0
  serializedVersion: 2
  m_Modification:
    m_TransformParent: {fileID: 0}
    m_Modifications:
    - target: {fileID: -4216859302048453862, guid: 64c57f3b6d9e67a42bac05fc677d4f7e,
        type: 3}
      propertyPath: m_LocalPosition.x
      value: -0
      objectReference: {fileID: 0}
    - target: {fileID: -4216859302048453862, guid: 64c57f3b6d9e67a42bac05fc677d4f7e,
        type: 3}
      propertyPath: m_LocalPosition.y
      value: 0
      objectReference: {fileID: 0}
    - target: {fileID: -4216859302048453862, guid: 64c57f3b6d9e67a42bac05fc677d4f7e,
        type: 3}
      propertyPath: m_LocalPosition.z
      value: 0
      objectReference: {fileID: 0}
    - target: {fileID: -4216859302048453862, guid: 64c57f3b6d9e67a42bac05fc677d4f7e,
        type: 3}
      propertyPath: m_LocalRotation.x
      value: 0
      objectReference: {fileID: 0}
    - target: {fileID: -4216859302048453862, guid: 64c57f3b6d9e67a42bac05fc677d4f7e,
        type: 3}
      propertyPath: m_LocalRotation.y
      value: 1
      objectReference: {fileID: 0}
    - target: {fileID: -4216859302048453862, guid: 64c57f3b6d9e67a42bac05fc677d4f7e,
        type: 3}
      propertyPath: m_LocalRotation.z
      value: 0
      objectReference: {fileID: 0}
    - target: {fileID: -4216859302048453862, guid: 64c57f3b6d9e67a42bac05fc677d4f7e,
        type: 3}
      propertyPath: m_LocalRotation.w
      value: 0
      objectReference: {fileID: 0}
    - target: {fileID: -4216859302048453862, guid: 64c57f3b6d9e67a42bac05fc677d4f7e,
        type: 3}
      propertyPath: m_RootOrder
      value: 0
      objectReference: {fileID: 0}
    - target: {fileID: -4216859302048453862, guid: 64c57f3b6d9e67a42bac05fc677d4f7e,
        type: 3}
      propertyPath: m_LocalEulerAnglesHint.x
      value: 0
      objectReference: {fileID: 0}
    - target: {fileID: -4216859302048453862, guid: 64c57f3b6d9e67a42bac05fc677d4f7e,
        type: 3}
      propertyPath: m_LocalEulerAnglesHint.y
      value: 180
      objectReference: {fileID: 0}
    - target: {fileID: -4216859302048453862, guid: 64c57f3b6d9e67a42bac05fc677d4f7e,
        type: 3}
      propertyPath: m_LocalEulerAnglesHint.z
      value: 0
      objectReference: {fileID: 0}
    - target: {fileID: -927199367670048503, guid: 64c57f3b6d9e67a42bac05fc677d4f7e,
        type: 3}
      propertyPath: m_Name
      value: Wall_Geo_Painting_Small_Up Variant
      objectReference: {fileID: 0}
    m_RemovedComponents: []
  m_SourcePrefab: {fileID: 100100000, guid: 64c57f3b6d9e67a42bac05fc677d4f7e, type: 3}
--- !u!1 &756798884024028045 stripped
GameObject:
  m_CorrespondingSourceObject: {fileID: -927199367670048503, guid: 64c57f3b6d9e67a42bac05fc677d4f7e,
    type: 3}
  m_PrefabInstance: {fileID: 8764389176300098180}
  m_PrefabAsset: {fileID: 0}
