%YAML 1.1
%TAG !u! tag:unity3d.com,2011:
--- !u!65 &8942376064889758583
BoxCollider:
  m_ObjectHideFlags: 0
  m_CorrespondingSourceObject: {fileID: 0}
  m_PrefabInstance: {fileID: 0}
  m_PrefabAsset: {fileID: 0}
  m_GameObject: {fileID: 7436792318154658341}
  m_Material: {fileID: 0}
  m_IsTrigger: 0
  m_Enabled: 1
  serializedVersion: 2
  m_Size: {x: 1.5, y: 3, z: 0.19999999}
  m_Center: {x: 0, y: 0, z: 0}
--- !u!1001 &1447104775391349548
PrefabInstance:
  m_ObjectHideFlags: 0
  serializedVersion: 2
  m_Modification:
    m_TransformParent: {fileID: 0}
    m_Modifications:
    - target: {fileID: -4216859302048453862, guid: d323ae649b0f0c64a9389134f5468e86,
        type: 3}
      propertyPath: m_LocalPosition.x
      value: 0
      objectReference: {fileID: 0}
    - target: {fileID: -4216859302048453862, guid: d323ae649b0f0c64a9389134f5468e86,
        type: 3}
      propertyPath: m_LocalPosition.y
      value: 0
      objectReference: {fileID: 0}
    - target: {fileID: -4216859302048453862, guid: d323ae649b0f0c64a9389134f5468e86,
        type: 3}
      propertyPath: m_LocalPosition.z
      value: 0
      objectReference: {fileID: 0}
    - target: {fileID: -4216859302048453862, guid: d323ae649b0f0c64a9389134f5468e86,
        type: 3}
      propertyPath: m_LocalRotation.x
      value: 0
      objectReference: {fileID: 0}
    - target: {fileID: -4216859302048453862, guid: d323ae649b0f0c64a9389134f5468e86,
        type: 3}
      propertyPath: m_LocalRotation.y
      value: -0
      objectReference: {fileID: 0}
    - target: {fileID: -4216859302048453862, guid: d323ae649b0f0c64a9389134f5468e86,
        type: 3}
      propertyPath: m_LocalRotation.z
      value: -0
      objectReference: {fileID: 0}
    - target: {fileID: -4216859302048453862, guid: d323ae649b0f0c64a9389134f5468e86,
        type: 3}
      propertyPath: m_LocalRotation.w
      value: 1
      objectReference: {fileID: 0}
    - target: {fileID: -4216859302048453862, guid: d323ae649b0f0c64a9389134f5468e86,
        type: 3}
      propertyPath: m_RootOrder
      value: 0
      objectReference: {fileID: 0}
    - target: {fileID: -4216859302048453862, guid: d323ae649b0f0c64a9389134f5468e86,
        type: 3}
      propertyPath: m_LocalEulerAnglesHint.x
      value: 0
      objectReference: {fileID: 0}
    - target: {fileID: -4216859302048453862, guid: d323ae649b0f0c64a9389134f5468e86,
        type: 3}
      propertyPath: m_LocalEulerAnglesHint.y
      value: 0
      objectReference: {fileID: 0}
    - target: {fileID: -4216859302048453862, guid: d323ae649b0f0c64a9389134f5468e86,
        type: 3}
      propertyPath: m_LocalEulerAnglesHint.z
      value: 0
      objectReference: {fileID: 0}
    - target: {fileID: -927199367670048503, guid: d323ae649b0f0c64a9389134f5468e86,
        type: 3}
      propertyPath: m_Name
      value: Wall_Painting_Big_Up_Horizontal_Bent_Right
      objectReference: {fileID: 0}
    m_RemovedComponents: []
  m_SourcePrefab: {fileID: 100100000, guid: d323ae649b0f0c64a9389134f5468e86, type: 3}
--- !u!1 &7436792318154658341 stripped
GameObject:
  m_CorrespondingSourceObject: {fileID: -927199367670048503, guid: d323ae649b0f0c64a9389134f5468e86,
    type: 3}
  m_PrefabInstance: {fileID: 1447104775391349548}
  m_PrefabAsset: {fileID: 0}
