%YAML 1.1
%TAG !u! tag:unity3d.com,2011:
--- !u!65 &9068424530034336060
BoxCollider:
  m_ObjectHideFlags: 0
  m_CorrespondingSourceObject: {fileID: 0}
  m_PrefabInstance: {fileID: 0}
  m_PrefabAsset: {fileID: 0}
  m_GameObject: {fileID: 3700500248205789560}
  m_Material: {fileID: 0}
  m_IsTrigger: 0
  m_Enabled: 1
  serializedVersion: 2
  m_Size: {x: 1.5, y: 3, z: 0.19999999}
  m_Center: {x: 0, y: 0, z: 0}
--- !u!1001 &4646373723979534449
PrefabInstance:
  m_ObjectHideFlags: 0
  serializedVersion: 2
  m_Modification:
    m_TransformParent: {fileID: 0}
    m_Modifications:
    - target: {fileID: -4216859302048453862, guid: 2e37a0e34190c9344b55e318a3ec0f85,
        type: 3}
      propertyPath: m_LocalPosition.x
      value: 0
      objectReference: {fileID: 0}
    - target: {fileID: -4216859302048453862, guid: 2e37a0e34190c9344b55e318a3ec0f85,
        type: 3}
      propertyPath: m_LocalPosition.y
      value: 0
      objectReference: {fileID: 0}
    - target: {fileID: -4216859302048453862, guid: 2e37a0e34190c9344b55e318a3ec0f85,
        type: 3}
      propertyPath: m_LocalPosition.z
      value: 0
      objectReference: {fileID: 0}
    - target: {fileID: -4216859302048453862, guid: 2e37a0e34190c9344b55e318a3ec0f85,
        type: 3}
      propertyPath: m_LocalRotation.x
      value: 0
      objectReference: {fileID: 0}
    - target: {fileID: -4216859302048453862, guid: 2e37a0e34190c9344b55e318a3ec0f85,
        type: 3}
      propertyPath: m_LocalRotation.y
      value: -0
      objectReference: {fileID: 0}
    - target: {fileID: -4216859302048453862, guid: 2e37a0e34190c9344b55e318a3ec0f85,
        type: 3}
      propertyPath: m_LocalRotation.z
      value: -0
      objectReference: {fileID: 0}
    - target: {fileID: -4216859302048453862, guid: 2e37a0e34190c9344b55e318a3ec0f85,
        type: 3}
      propertyPath: m_LocalRotation.w
      value: 1
      objectReference: {fileID: 0}
    - target: {fileID: -4216859302048453862, guid: 2e37a0e34190c9344b55e318a3ec0f85,
        type: 3}
      propertyPath: m_RootOrder
      value: 0
      objectReference: {fileID: 0}
    - target: {fileID: -4216859302048453862, guid: 2e37a0e34190c9344b55e318a3ec0f85,
        type: 3}
      propertyPath: m_LocalEulerAnglesHint.x
      value: 0
      objectReference: {fileID: 0}
    - target: {fileID: -4216859302048453862, guid: 2e37a0e34190c9344b55e318a3ec0f85,
        type: 3}
      propertyPath: m_LocalEulerAnglesHint.y
      value: 0
      objectReference: {fileID: 0}
    - target: {fileID: -4216859302048453862, guid: 2e37a0e34190c9344b55e318a3ec0f85,
        type: 3}
      propertyPath: m_LocalEulerAnglesHint.z
      value: 0
      objectReference: {fileID: 0}
    - target: {fileID: -927199367670048503, guid: 2e37a0e34190c9344b55e318a3ec0f85,
        type: 3}
      propertyPath: m_Name
      value: Wall_Painting_Big_Up_Horizontal_Bent_Left
      objectReference: {fileID: 0}
    m_RemovedComponents: []
  m_SourcePrefab: {fileID: 100100000, guid: 2e37a0e34190c9344b55e318a3ec0f85, type: 3}
--- !u!1 &3700500248205789560 stripped
GameObject:
  m_CorrespondingSourceObject: {fileID: -927199367670048503, guid: 2e37a0e34190c9344b55e318a3ec0f85,
    type: 3}
  m_PrefabInstance: {fileID: 4646373723979534449}
  m_PrefabAsset: {fileID: 0}
