%YAML 1.1
%TAG !u! tag:unity3d.com,2011:
--- !u!1 &8229390217851454870
GameObject:
  m_ObjectHideFlags: 0
  m_CorrespondingSourceObject: {fileID: 0}
  m_PrefabInstance: {fileID: 0}
  m_PrefabAsset: {fileID: 0}
  serializedVersion: 6
  m_Component:
  - component: {fileID: 9180924308245868850}
  m_Layer: 0
  m_Name: GameObject
  m_TagString: Untagged
  m_Icon: {fileID: 0}
  m_NavMeshLayer: 0
  m_StaticEditorFlags: 0
  m_IsActive: 1
--- !u!4 &9180924308245868850
Transform:
  m_ObjectHideFlags: 0
  m_CorrespondingSourceObject: {fileID: 0}
  m_PrefabInstance: {fileID: 0}
  m_PrefabAsset: {fileID: 0}
  m_GameObject: {fileID: 8229390217851454870}
  m_LocalRotation: {x: 0, y: 0, z: 0, w: 1}
  m_LocalPosition: {x: 0, y: 0, z: 0}
  m_LocalScale: {x: 1, y: 1, z: 1}
  m_Children:
  - {fileID: 8309899261976623402}
  - {fileID: 6215912968252717633}
  m_Father: {fileID: 0}
  m_RootOrder: 0
  m_LocalEulerAnglesHint: {x: 0, y: 0, z: 0}
--- !u!1001 &8168515706935144214
PrefabInstance:
  m_ObjectHideFlags: 0
  serializedVersion: 2
  m_Modification:
    m_TransformParent: {fileID: 9180924308245868850}
    m_Modifications:
    - target: {fileID: 148289588718523964, guid: 93ce1dd09fdf6e14a86247b86d4790e3,
        type: 3}
      propertyPath: m_LocalPosition.x
      value: 0
      objectReference: {fileID: 0}
    - target: {fileID: 148289588718523964, guid: 93ce1dd09fdf6e14a86247b86d4790e3,
        type: 3}
      propertyPath: m_LocalPosition.y
      value: 1.4329996
      objectReference: {fileID: 0}
    - target: {fileID: 148289588718523964, guid: 93ce1dd09fdf6e14a86247b86d4790e3,
        type: 3}
      propertyPath: m_LocalPosition.z
      value: 0
      objectReference: {fileID: 0}
    - target: {fileID: 148289588718523964, guid: 93ce1dd09fdf6e14a86247b86d4790e3,
        type: 3}
      propertyPath: m_LocalRotation.x
      value: 0.7071068
      objectReference: {fileID: 0}
    - target: {fileID: 148289588718523964, guid: 93ce1dd09fdf6e14a86247b86d4790e3,
        type: 3}
      propertyPath: m_LocalRotation.y
      value: -0
      objectReference: {fileID: 0}
    - target: {fileID: 148289588718523964, guid: 93ce1dd09fdf6e14a86247b86d4790e3,
        type: 3}
      propertyPath: m_LocalRotation.z
      value: -0
      objectReference: {fileID: 0}
    - target: {fileID: 148289588718523964, guid: 93ce1dd09fdf6e14a86247b86d4790e3,
        type: 3}
      propertyPath: m_LocalRotation.w
      value: 0.7071068
      objectReference: {fileID: 0}
    - target: {fileID: 148289588718523964, guid: 93ce1dd09fdf6e14a86247b86d4790e3,
        type: 3}
      propertyPath: m_RootOrder
      value: 0
      objectReference: {fileID: 0}
    - target: {fileID: 148289588718523964, guid: 93ce1dd09fdf6e14a86247b86d4790e3,
        type: 3}
      propertyPath: m_LocalEulerAnglesHint.x
      value: 90
      objectReference: {fileID: 0}
    - target: {fileID: 148289588718523964, guid: 93ce1dd09fdf6e14a86247b86d4790e3,
        type: 3}
      propertyPath: m_LocalEulerAnglesHint.y
      value: 0
      objectReference: {fileID: 0}
    - target: {fileID: 148289588718523964, guid: 93ce1dd09fdf6e14a86247b86d4790e3,
        type: 3}
      propertyPath: m_LocalEulerAnglesHint.z
      value: 0
      objectReference: {fileID: 0}
    - target: {fileID: 3771075571373712431, guid: 93ce1dd09fdf6e14a86247b86d4790e3,
        type: 3}
      propertyPath: m_Name
      value: Big_Painting Variant Variant
      objectReference: {fileID: 0}
    m_RemovedComponents: []
  m_SourcePrefab: {fileID: 100100000, guid: 93ce1dd09fdf6e14a86247b86d4790e3, type: 3}
--- !u!4 &8309899261976623402 stripped
Transform:
  m_CorrespondingSourceObject: {fileID: 148289588718523964, guid: 93ce1dd09fdf6e14a86247b86d4790e3,
    type: 3}
  m_PrefabInstance: {fileID: 8168515706935144214}
  m_PrefabAsset: {fileID: 0}
--- !u!1001 &8168515708019352637
PrefabInstance:
  m_ObjectHideFlags: 0
  serializedVersion: 2
  m_Modification:
    m_TransformParent: {fileID: 9180924308245868850}
    m_Modifications:
    - target: {fileID: 2698459339700493506, guid: bef2b4390d5fcea4ead3feddd7aecfbf,
        type: 3}
      propertyPath: m_Name
      value: Frame_Painting_Small_Down Variant (1)
      objectReference: {fileID: 0}
    - target: {fileID: 2819040236326313596, guid: bef2b4390d5fcea4ead3feddd7aecfbf,
        type: 3}
      propertyPath: m_LocalPosition.x
      value: -2.2280006
      objectReference: {fileID: 0}
    - target: {fileID: 2819040236326313596, guid: bef2b4390d5fcea4ead3feddd7aecfbf,
        type: 3}
      propertyPath: m_LocalPosition.y
      value: 0.3000002
      objectReference: {fileID: 0}
    - target: {fileID: 2819040236326313596, guid: bef2b4390d5fcea4ead3feddd7aecfbf,
        type: 3}
      propertyPath: m_LocalPosition.z
      value: -1.0539999
      objectReference: {fileID: 0}
    - target: {fileID: 2819040236326313596, guid: bef2b4390d5fcea4ead3feddd7aecfbf,
        type: 3}
      propertyPath: m_LocalRotation.x
      value: 0.5
      objectReference: {fileID: 0}
    - target: {fileID: 2819040236326313596, guid: bef2b4390d5fcea4ead3feddd7aecfbf,
        type: 3}
      propertyPath: m_LocalRotation.y
      value: 0.5
      objectReference: {fileID: 0}
    - target: {fileID: 2819040236326313596, guid: bef2b4390d5fcea4ead3feddd7aecfbf,
        type: 3}
      propertyPath: m_LocalRotation.z
      value: 0.5
      objectReference: {fileID: 0}
    - target: {fileID: 2819040236326313596, guid: bef2b4390d5fcea4ead3feddd7aecfbf,
        type: 3}
      propertyPath: m_LocalRotation.w
      value: 0.5
      objectReference: {fileID: 0}
    - target: {fileID: 2819040236326313596, guid: bef2b4390d5fcea4ead3feddd7aecfbf,
        type: 3}
      propertyPath: m_RootOrder
      value: 1
      objectReference: {fileID: 0}
    - target: {fileID: 2819040236326313596, guid: bef2b4390d5fcea4ead3feddd7aecfbf,
        type: 3}
      propertyPath: m_LocalEulerAnglesHint.x
      value: 0
      objectReference: {fileID: 0}
    - target: {fileID: 2819040236326313596, guid: bef2b4390d5fcea4ead3feddd7aecfbf,
        type: 3}
      propertyPath: m_LocalEulerAnglesHint.y
      value: 90
      objectReference: {fileID: 0}
    - target: {fileID: 2819040236326313596, guid: bef2b4390d5fcea4ead3feddd7aecfbf,
        type: 3}
      propertyPath: m_LocalEulerAnglesHint.z
      value: 90
      objectReference: {fileID: 0}
    - target: {fileID: 6581617512330440907, guid: bef2b4390d5fcea4ead3feddd7aecfbf,
        type: 3}
      propertyPath: m_Materials.Array.data[0]
      value: 
      objectReference: {fileID: 2100000, guid: 3768c55ff7725ea4caa3bac397ba9f89, type: 2}
    m_RemovedComponents: []
  m_SourcePrefab: {fileID: 100100000, guid: bef2b4390d5fcea4ead3feddd7aecfbf, type: 3}
--- !u!4 &6215912968252717633 stripped
Transform:
  m_CorrespondingSourceObject: {fileID: 2819040236326313596, guid: bef2b4390d5fcea4ead3feddd7aecfbf,
    type: 3}
  m_PrefabInstance: {fileID: 8168515708019352637}
  m_PrefabAsset: {fileID: 0}
