%YAML 1.1
%TAG !u! tag:unity3d.com,2011:
--- !u!114 &11400000
MonoBehaviour:
  m_ObjectHideFlags: 0
  m_CorrespondingSourceObject: {fileID: 0}
  m_PrefabInstance: {fileID: 0}
  m_PrefabAsset: {fileID: 0}
  m_GameObject: {fileID: 0}
  m_Enabled: 1
  m_EditorHideFlags: 0
  m_Script: {fileID: 11500000, guid: 8c064eaf9c6fcde47bfd7c2ee8ea0c0e, type: 3}
  m_Name: 22295799-9C01-4D36-95F0-4B5CAA62DAB8
  m_EditorClassIdentifier: 
  objectName: NiveauAngoisse4
  id: 2520750716
  guid: 22295799-9C01-4D36-95F0-4B5CAA62DAB8
  WwiseStateGroupReference: {fileID: 11400000, guid: e7b39c2ac3522604cb1c9d76cb5106c6,
    type: 2}
