%YAML 1.1
%TAG !u! tag:unity3d.com,2011:
--- !u!114 &11400000
MonoBehaviour:
  m_ObjectHideFlags: 0
  m_CorrespondingSourceObject: {fileID: 0}
  m_PrefabInstance: {fileID: 0}
  m_PrefabAsset: {fileID: 0}
  m_GameObject: {fileID: 0}
  m_Enabled: 1
  m_EditorHideFlags: 0
  m_Script: {fileID: 11500000, guid: 8c064eaf9c6fcde47bfd7c2ee8ea0c0e, type: 3}
  m_Name: 90A02B73-DF24-4FD3-A47A-21A709643CDB
  m_EditorClassIdentifier: 
  objectName: PHONO_Salle5
  id: 2395659098
  guid: 90A02B73-DF24-4FD3-A47A-21A709643CDB
  WwiseStateGroupReference: {fileID: 11400000, guid: c0dbc940faebc444484b6354926edc58,
    type: 2}
