%YAML 1.1
%TAG !u! tag:unity3d.com,2011:
--- !u!114 &7185013642160818380
MonoBehaviour:
  m_ObjectHideFlags: 0
  m_CorrespondingSourceObject: {fileID: 0}
  m_PrefabInstance: {fileID: 0}
  m_PrefabAsset: {fileID: 0}
  m_GameObject: {fileID: 6894685824228710674}
  m_Enabled: 1
  m_EditorHideFlags: 0
  m_Script: {fileID: 11500000, guid: 312482ada8ca2414ea7dd595f423e40c, type: 3}
  m_Name: 
  m_EditorClassIdentifier: 
  startOffset: {x: 0, y: 0, z: 0}
  danceRotation: {x: 10, y: 0, z: -10}
  danceAxis: {x: 0, y: 1, z: 0}
  danceSpeed: 3
--- !u!1001 &1734506403510468440
PrefabInstance:
  m_ObjectHideFlags: 0
  serializedVersion: 2
  m_Modification:
    m_TransformParent: {fileID: 0}
    m_Modifications:
    - target: {fileID: 5169266336742991434, guid: 8cd8570f2fb2a5244822b2f737a2bd4a,
        type: 3}
      propertyPath: m_Name
      value: Chair_Geo 4
      objectReference: {fileID: 0}
    - target: {fileID: 8207728409571595353, guid: 8cd8570f2fb2a5244822b2f737a2bd4a,
        type: 3}
      propertyPath: m_RootOrder
      value: 0
      objectReference: {fileID: 0}
    - target: {fileID: 8207728409571595353, guid: 8cd8570f2fb2a5244822b2f737a2bd4a,
        type: 3}
      propertyPath: m_LocalEulerAnglesHint.x
      value: 0
      objectReference: {fileID: 0}
    - target: {fileID: 8207728409571595353, guid: 8cd8570f2fb2a5244822b2f737a2bd4a,
        type: 3}
      propertyPath: m_LocalEulerAnglesHint.y
      value: 0
      objectReference: {fileID: 0}
    - target: {fileID: 8207728409571595353, guid: 8cd8570f2fb2a5244822b2f737a2bd4a,
        type: 3}
      propertyPath: m_LocalEulerAnglesHint.z
      value: 0
      objectReference: {fileID: 0}
    m_RemovedComponents: []
  m_SourcePrefab: {fileID: 100100000, guid: 8cd8570f2fb2a5244822b2f737a2bd4a, type: 3}
--- !u!1 &6894685824228710674 stripped
GameObject:
  m_CorrespondingSourceObject: {fileID: 5169266336742991434, guid: 8cd8570f2fb2a5244822b2f737a2bd4a,
    type: 3}
  m_PrefabInstance: {fileID: 1734506403510468440}
  m_PrefabAsset: {fileID: 0}
