%YAML 1.1
%TAG !u! tag:unity3d.com,2011:
--- !u!1001 &1830937926011405558
PrefabInstance:
  m_ObjectHideFlags: 0
  serializedVersion: 2
  m_Modification:
    m_TransformParent: {fileID: 0}
    m_Modifications:
    - target: {fileID: 313182475475477033, guid: 216c7b630c51ab542957d4ab68ddf79b,
        type: 3}
      propertyPath: m_RootOrder
      value: 0
      objectReference: {fileID: 0}
    - target: {fileID: 313182475475477033, guid: 216c7b630c51ab542957d4ab68ddf79b,
        type: 3}
      propertyPath: m_LocalEulerAnglesHint.x
      value: 0
      objectReference: {fileID: 0}
    - target: {fileID: 313182475475477033, guid: 216c7b630c51ab542957d4ab68ddf79b,
        type: 3}
      propertyPath: m_LocalEulerAnglesHint.y
      value: 0
      objectReference: {fileID: 0}
    - target: {fileID: 313182475475477033, guid: 216c7b630c51ab542957d4ab68ddf79b,
        type: 3}
      propertyPath: m_LocalEulerAnglesHint.z
      value: 0
      objectReference: {fileID: 0}
    - target: {fileID: 3604001297021341754, guid: 216c7b630c51ab542957d4ab68ddf79b,
        type: 3}
      propertyPath: m_Name
      value: Couch_Geo Variant
      objectReference: {fileID: 0}
    m_RemovedComponents: []
  m_SourcePrefab: {fileID: 100100000, guid: 216c7b630c51ab542957d4ab68ddf79b, type: 3}
