%YAML 1.1
%TAG !u! tag:unity3d.com,2011:
--- !u!114 &8381568704268980088
MonoBehaviour:
  m_ObjectHideFlags: 0
  m_CorrespondingSourceObject: {fileID: 0}
  m_PrefabInstance: {fileID: 0}
  m_PrefabAsset: {fileID: 0}
  m_GameObject: {fileID: 4648032444553203331}
  m_Enabled: 1
  m_EditorHideFlags: 0
  m_Script: {fileID: 11500000, guid: 312482ada8ca2414ea7dd595f423e40c, type: 3}
  m_Name: 
  m_EditorClassIdentifier: 
  startOffset: {x: 0, y: 0, z: 0}
  danceAxis: {x: 0, y: 0, z: 1}
--- !u!1001 &7610663204414347791
PrefabInstance:
  m_ObjectHideFlags: 0
  serializedVersion: 2
  m_Modification:
    m_TransformParent: {fileID: 0}
    m_Modifications:
    - target: {fileID: 2963264364512367756, guid: 38b5870f2fc3d444eab0ef0b036a95c4,
        type: 3}
      propertyPath: m_Name
      value: Frame_Painting_Big_Downt_Left 4
      objectReference: {fileID: 0}
    - target: {fileID: 8631305423158100639, guid: 38b5870f2fc3d444eab0ef0b036a95c4,
        type: 3}
      propertyPath: m_LocalRotation.x
      value: -0
      objectReference: {fileID: 0}
    - target: {fileID: 8631305423158100639, guid: 38b5870f2fc3d444eab0ef0b036a95c4,
        type: 3}
      propertyPath: m_LocalRotation.y
      value: 0.00000037252897
      objectReference: {fileID: 0}
    - target: {fileID: 8631305423158100639, guid: 38b5870f2fc3d444eab0ef0b036a95c4,
        type: 3}
      propertyPath: m_LocalRotation.z
      value: -0
      objectReference: {fileID: 0}
    - target: {fileID: 8631305423158100639, guid: 38b5870f2fc3d444eab0ef0b036a95c4,
        type: 3}
      propertyPath: m_LocalRotation.w
      value: -1
      objectReference: {fileID: 0}
    - target: {fileID: 8631305423158100639, guid: 38b5870f2fc3d444eab0ef0b036a95c4,
        type: 3}
      propertyPath: m_RootOrder
      value: 0
      objectReference: {fileID: 0}
    - target: {fileID: 8631305423158100639, guid: 38b5870f2fc3d444eab0ef0b036a95c4,
        type: 3}
      propertyPath: m_LocalEulerAnglesHint.x
      value: 0
      objectReference: {fileID: 0}
    - target: {fileID: 8631305423158100639, guid: 38b5870f2fc3d444eab0ef0b036a95c4,
        type: 3}
      propertyPath: m_LocalEulerAnglesHint.y
      value: 0
      objectReference: {fileID: 0}
    - target: {fileID: 8631305423158100639, guid: 38b5870f2fc3d444eab0ef0b036a95c4,
        type: 3}
      propertyPath: m_LocalEulerAnglesHint.z
      value: 0
      objectReference: {fileID: 0}
    m_RemovedComponents: []
  m_SourcePrefab: {fileID: 100100000, guid: 38b5870f2fc3d444eab0ef0b036a95c4, type: 3}
--- !u!1 &4648032444553203331 stripped
GameObject:
  m_CorrespondingSourceObject: {fileID: 2963264364512367756, guid: 38b5870f2fc3d444eab0ef0b036a95c4,
    type: 3}
  m_PrefabInstance: {fileID: 7610663204414347791}
  m_PrefabAsset: {fileID: 0}
