%YAML 1.1
%TAG !u! tag:unity3d.com,2011:
--- !u!1001 &4380833183838386955
PrefabInstance:
  m_ObjectHideFlags: 0
  serializedVersion: 2
  m_Modification:
    m_TransformParent: {fileID: 0}
    m_Modifications:
    - target: {fileID: 461972955741595560, guid: 0976d3870ec2b7c4b8d468158ccc34df,
        type: 3}
      propertyPath: m_Materials.Array.data[0]
      value: 
      objectReference: {fileID: 2100000, guid: c806a22e8edba1b489a9d216f12610e3, type: 2}
    - target: {fileID: 2185820285956166516, guid: 0976d3870ec2b7c4b8d468158ccc34df,
        type: 3}
      propertyPath: m_Name
      value: Wall_Simple_Geo 4
      objectReference: {fileID: 0}
    - target: {fileID: 2886471052200010087, guid: 0976d3870ec2b7c4b8d468158ccc34df,
        type: 3}
      propertyPath: m_LocalPosition.x
      value: 0
      objectReference: {fileID: 0}
    - target: {fileID: 2886471052200010087, guid: 0976d3870ec2b7c4b8d468158ccc34df,
        type: 3}
      propertyPath: m_LocalPosition.y
      value: 0
      objectReference: {fileID: 0}
    - target: {fileID: 2886471052200010087, guid: 0976d3870ec2b7c4b8d468158ccc34df,
        type: 3}
      propertyPath: m_LocalPosition.z
      value: 0
      objectReference: {fileID: 0}
    - target: {fileID: 2886471052200010087, guid: 0976d3870ec2b7c4b8d468158ccc34df,
        type: 3}
      propertyPath: m_LocalRotation.x
      value: 0
      objectReference: {fileID: 0}
    - target: {fileID: 2886471052200010087, guid: 0976d3870ec2b7c4b8d468158ccc34df,
        type: 3}
      propertyPath: m_LocalRotation.y
      value: 0
      objectReference: {fileID: 0}
    - target: {fileID: 2886471052200010087, guid: 0976d3870ec2b7c4b8d468158ccc34df,
        type: 3}
      propertyPath: m_LocalRotation.z
      value: 0
      objectReference: {fileID: 0}
    - target: {fileID: 2886471052200010087, guid: 0976d3870ec2b7c4b8d468158ccc34df,
        type: 3}
      propertyPath: m_LocalRotation.w
      value: 1
      objectReference: {fileID: 0}
    - target: {fileID: 2886471052200010087, guid: 0976d3870ec2b7c4b8d468158ccc34df,
        type: 3}
      propertyPath: m_RootOrder
      value: 0
      objectReference: {fileID: 0}
    - target: {fileID: 2886471052200010087, guid: 0976d3870ec2b7c4b8d468158ccc34df,
        type: 3}
      propertyPath: m_LocalEulerAnglesHint.x
      value: 0
      objectReference: {fileID: 0}
    - target: {fileID: 2886471052200010087, guid: 0976d3870ec2b7c4b8d468158ccc34df,
        type: 3}
      propertyPath: m_LocalEulerAnglesHint.y
      value: 0
      objectReference: {fileID: 0}
    - target: {fileID: 2886471052200010087, guid: 0976d3870ec2b7c4b8d468158ccc34df,
        type: 3}
      propertyPath: m_LocalEulerAnglesHint.z
      value: 0
      objectReference: {fileID: 0}
    m_RemovedComponents: []
  m_SourcePrefab: {fileID: 100100000, guid: 0976d3870ec2b7c4b8d468158ccc34df, type: 3}
