%YAML 1.1
%TAG !u! tag:unity3d.com,2011:
--- !u!114 &11400000
MonoBehaviour:
  m_ObjectHideFlags: 0
  m_CorrespondingSourceObject: {fileID: 0}
  m_PrefabInstance: {fileID: 0}
  m_PrefabAsset: {fileID: 0}
  m_GameObject: {fileID: 0}
  m_Enabled: 1
  m_EditorHideFlags: 0
  m_Script: {fileID: 11500000, guid: 8316907b481addb429be81e3626b8972, type: 3}
  m_Name: 434B4087-EF61-4D98-B599-20B718B34E4A
  m_EditorClassIdentifier: 
  objectName: Main_01
  id: 3534669624
  guid: 434B4087-EF61-4D98-B599-20B718B34E4A
