%YAML 1.1
%TAG !u! tag:unity3d.com,2011:
--- !u!114 &1409435194
MonoBehaviour:
  m_ObjectHideFlags: 0
  m_CorrespondingSourceObject: {fileID: 0}
  m_PrefabInstance: {fileID: 0}
  m_PrefabAsset: {fileID: 0}
  m_GameObject: {fileID: 2276231592363253814}
  m_Enabled: 1
  m_EditorHideFlags: 0
  m_Script: {fileID: 11500000, guid: 65f5e0655c2d8bf48a9cf971d2312608, type: 3}
  m_Name: 
  m_EditorClassIdentifier: 
  targetNameOverride: Pawn
  target: {fileID: 0}
  lockX: 1
  lockY: 0
  lockZ: 1
  distAdaptCurve:
    serializedVersion: 2
    m_Curve:
    - serializedVersion: 3
      time: 0
      value: 0
      inSlope: 0
      outSlope: 0
      tangentMode: 0
      weightedMode: 0
      inWeight: 0
      outWeight: 0
    - serializedVersion: 3
      time: 1
      value: 1
      inSlope: 2
      outSlope: 2
      tangentMode: 0
      weightedMode: 0
      inWeight: 0
      outWeight: 0
    m_PreInfinity: 2
    m_PostInfinity: 2
    m_RotationOrder: 4
  maxDist: 5
  maxSpeed: 10
  activated: 0
  rotationEvent:
    idInternal: 0
    valueGuidInternal: 
    WwiseObjectReference: {fileID: 11400000, guid: 41d16ea2764f8d44c8bb91abfb070242,
      type: 2}
  rotateEventOnLook: 1
--- !u!114 &4325764549786757009
MonoBehaviour:
  m_ObjectHideFlags: 0
  m_CorrespondingSourceObject: {fileID: 0}
  m_PrefabInstance: {fileID: 0}
  m_PrefabAsset: {fileID: 0}
  m_GameObject: {fileID: 2276231592363253814}
  m_Enabled: 1
  m_EditorHideFlags: 0
  m_Script: {fileID: 11500000, guid: 58f4023d15902b144b06868b643048d9, type: 3}
  m_Name: 
  m_EditorClassIdentifier: 
  spot: {fileID: 3610482749059433315}
  duration: 4
  curve:
    serializedVersion: 2
    m_Curve:
    - serializedVersion: 3
      time: 0
      value: 0
      inSlope: 0
      outSlope: 0
      tangentMode: 0
      weightedMode: 0
      inWeight: 0
      outWeight: 0
    - serializedVersion: 3
      time: 1
      value: 1
      inSlope: 2
      outSlope: 2
      tangentMode: 0
      weightedMode: 0
      inWeight: 0
      outWeight: 0
    m_PreInfinity: 2
    m_PostInfinity: 2
    m_RotationOrder: 4
--- !u!1 &7310599098332108876
GameObject:
  m_ObjectHideFlags: 0
  m_CorrespondingSourceObject: {fileID: 0}
  m_PrefabInstance: {fileID: 0}
  m_PrefabAsset: {fileID: 0}
  serializedVersion: 6
  m_Component:
  - component: {fileID: 3610482749059433315}
  m_Layer: 0
  m_Name: Destination
  m_TagString: Untagged
  m_Icon: {fileID: 0}
  m_NavMeshLayer: 0
  m_StaticEditorFlags: 0
  m_IsActive: 1
--- !u!4 &3610482749059433315
Transform:
  m_ObjectHideFlags: 0
  m_CorrespondingSourceObject: {fileID: 0}
  m_PrefabInstance: {fileID: 0}
  m_PrefabAsset: {fileID: 0}
  m_GameObject: {fileID: 7310599098332108876}
  m_LocalRotation: {x: 0, y: 0, z: 0, w: 1}
  m_LocalPosition: {x: 0, y: 0, z: 0}
  m_LocalScale: {x: 1, y: 1, z: 1}
  m_Children: []
  m_Father: {fileID: 3012227871625417253}
  m_RootOrder: 8
  m_LocalEulerAnglesHint: {x: 0, y: 0, z: 0}
--- !u!1001 &6352926279127664252
PrefabInstance:
  m_ObjectHideFlags: 0
  serializedVersion: 2
  m_Modification:
    m_TransformParent: {fileID: 0}
    m_Modifications:
    - target: {fileID: 71849567630111731, guid: 8cd8570f2fb2a5244822b2f737a2bd4a,
        type: 3}
      propertyPath: m_StaticEditorFlags
      value: 0
      objectReference: {fileID: 0}
    - target: {fileID: 1493917050192526690, guid: 8cd8570f2fb2a5244822b2f737a2bd4a,
        type: 3}
      propertyPath: m_StaticEditorFlags
      value: 0
      objectReference: {fileID: 0}
    - target: {fileID: 1995238958424643459, guid: 8cd8570f2fb2a5244822b2f737a2bd4a,
        type: 3}
      propertyPath: m_StaticEditorFlags
      value: 0
      objectReference: {fileID: 0}
    - target: {fileID: 2450500697031606470, guid: 8cd8570f2fb2a5244822b2f737a2bd4a,
        type: 3}
      propertyPath: m_StaticEditorFlags
      value: 0
      objectReference: {fileID: 0}
    - target: {fileID: 5169266336742991434, guid: 8cd8570f2fb2a5244822b2f737a2bd4a,
        type: 3}
      propertyPath: m_Name
      value: Chair_Geo Looking
      objectReference: {fileID: 0}
    - target: {fileID: 5169266336742991434, guid: 8cd8570f2fb2a5244822b2f737a2bd4a,
        type: 3}
      propertyPath: m_StaticEditorFlags
      value: 0
      objectReference: {fileID: 0}
    - target: {fileID: 5619895528553065829, guid: 8cd8570f2fb2a5244822b2f737a2bd4a,
        type: 3}
      propertyPath: m_StaticEditorFlags
      value: 0
      objectReference: {fileID: 0}
    - target: {fileID: 5861738215980104672, guid: 8cd8570f2fb2a5244822b2f737a2bd4a,
        type: 3}
      propertyPath: m_StaticEditorFlags
      value: 0
      objectReference: {fileID: 0}
    - target: {fileID: 6178754763064733841, guid: 8cd8570f2fb2a5244822b2f737a2bd4a,
        type: 3}
      propertyPath: m_StaticEditorFlags
      value: 0
      objectReference: {fileID: 0}
    - target: {fileID: 8207728409571595353, guid: 8cd8570f2fb2a5244822b2f737a2bd4a,
        type: 3}
      propertyPath: m_LocalPosition.x
      value: 0
      objectReference: {fileID: 0}
    - target: {fileID: 8207728409571595353, guid: 8cd8570f2fb2a5244822b2f737a2bd4a,
        type: 3}
      propertyPath: m_LocalPosition.y
      value: 0
      objectReference: {fileID: 0}
    - target: {fileID: 8207728409571595353, guid: 8cd8570f2fb2a5244822b2f737a2bd4a,
        type: 3}
      propertyPath: m_LocalPosition.z
      value: 0
      objectReference: {fileID: 0}
    - target: {fileID: 8207728409571595353, guid: 8cd8570f2fb2a5244822b2f737a2bd4a,
        type: 3}
      propertyPath: m_LocalRotation.x
      value: 0
      objectReference: {fileID: 0}
    - target: {fileID: 8207728409571595353, guid: 8cd8570f2fb2a5244822b2f737a2bd4a,
        type: 3}
      propertyPath: m_LocalRotation.y
      value: 0
      objectReference: {fileID: 0}
    - target: {fileID: 8207728409571595353, guid: 8cd8570f2fb2a5244822b2f737a2bd4a,
        type: 3}
      propertyPath: m_LocalRotation.z
      value: 0
      objectReference: {fileID: 0}
    - target: {fileID: 8207728409571595353, guid: 8cd8570f2fb2a5244822b2f737a2bd4a,
        type: 3}
      propertyPath: m_LocalRotation.w
      value: 1
      objectReference: {fileID: 0}
    - target: {fileID: 8207728409571595353, guid: 8cd8570f2fb2a5244822b2f737a2bd4a,
        type: 3}
      propertyPath: m_RootOrder
      value: 0
      objectReference: {fileID: 0}
    - target: {fileID: 8207728409571595353, guid: 8cd8570f2fb2a5244822b2f737a2bd4a,
        type: 3}
      propertyPath: m_LocalEulerAnglesHint.x
      value: 0
      objectReference: {fileID: 0}
    - target: {fileID: 8207728409571595353, guid: 8cd8570f2fb2a5244822b2f737a2bd4a,
        type: 3}
      propertyPath: m_LocalEulerAnglesHint.y
      value: 0
      objectReference: {fileID: 0}
    - target: {fileID: 8207728409571595353, guid: 8cd8570f2fb2a5244822b2f737a2bd4a,
        type: 3}
      propertyPath: m_LocalEulerAnglesHint.z
      value: 0
      objectReference: {fileID: 0}
    - target: {fileID: 8904590108262650816, guid: 8cd8570f2fb2a5244822b2f737a2bd4a,
        type: 3}
      propertyPath: m_StaticEditorFlags
      value: 0
      objectReference: {fileID: 0}
    m_RemovedComponents: []
  m_SourcePrefab: {fileID: 100100000, guid: 8cd8570f2fb2a5244822b2f737a2bd4a, type: 3}
--- !u!1 &2276231592363253814 stripped
GameObject:
  m_CorrespondingSourceObject: {fileID: 5169266336742991434, guid: 8cd8570f2fb2a5244822b2f737a2bd4a,
    type: 3}
  m_PrefabInstance: {fileID: 6352926279127664252}
  m_PrefabAsset: {fileID: 0}
--- !u!4 &3012227871625417253 stripped
Transform:
  m_CorrespondingSourceObject: {fileID: 8207728409571595353, guid: 8cd8570f2fb2a5244822b2f737a2bd4a,
    type: 3}
  m_PrefabInstance: {fileID: 6352926279127664252}
  m_PrefabAsset: {fileID: 0}
