%YAML 1.1
%TAG !u! tag:unity3d.com,2011:
--- !u!1001 &4746273046247726394
PrefabInstance:
  m_ObjectHideFlags: 0
  serializedVersion: 2
  m_Modification:
    m_TransformParent: {fileID: 0}
    m_Modifications:
    - target: {fileID: -4216859302048453862, guid: f8a7740bc48a3fe45b943dcec6c47b38,
        type: 3}
      propertyPath: m_LocalPosition.x
      value: -88.318275
      objectReference: {fileID: 0}
    - target: {fileID: -4216859302048453862, guid: f8a7740bc48a3fe45b943dcec6c47b38,
        type: 3}
      propertyPath: m_LocalPosition.y
      value: 3.93
      objectReference: {fileID: 0}
    - target: {fileID: -4216859302048453862, guid: f8a7740bc48a3fe45b943dcec6c47b38,
        type: 3}
      propertyPath: m_LocalPosition.z
      value: -10.34776
      objectReference: {fileID: 0}
    - target: {fileID: -4216859302048453862, guid: f8a7740bc48a3fe45b943dcec6c47b38,
        type: 3}
      propertyPath: m_LocalRotation.x
      value: -0
      objectReference: {fileID: 0}
    - target: {fileID: -4216859302048453862, guid: f8a7740bc48a3fe45b943dcec6c47b38,
        type: 3}
      propertyPath: m_LocalRotation.y
      value: -1
      objectReference: {fileID: 0}
    - target: {fileID: -4216859302048453862, guid: f8a7740bc48a3fe45b943dcec6c47b38,
        type: 3}
      propertyPath: m_LocalRotation.z
      value: -0
      objectReference: {fileID: 0}
    - target: {fileID: -4216859302048453862, guid: f8a7740bc48a3fe45b943dcec6c47b38,
        type: 3}
      propertyPath: m_LocalRotation.w
      value: 0.00000058114523
      objectReference: {fileID: 0}
    - target: {fileID: -4216859302048453862, guid: f8a7740bc48a3fe45b943dcec6c47b38,
        type: 3}
      propertyPath: m_RootOrder
      value: 0
      objectReference: {fileID: 0}
    - target: {fileID: -4216859302048453862, guid: f8a7740bc48a3fe45b943dcec6c47b38,
        type: 3}
      propertyPath: m_LocalEulerAnglesHint.x
      value: 0
      objectReference: {fileID: 0}
    - target: {fileID: -4216859302048453862, guid: f8a7740bc48a3fe45b943dcec6c47b38,
        type: 3}
      propertyPath: m_LocalEulerAnglesHint.y
      value: -180.00002
      objectReference: {fileID: 0}
    - target: {fileID: -4216859302048453862, guid: f8a7740bc48a3fe45b943dcec6c47b38,
        type: 3}
      propertyPath: m_LocalEulerAnglesHint.z
      value: 0
      objectReference: {fileID: 0}
    - target: {fileID: -927199367670048503, guid: f8a7740bc48a3fe45b943dcec6c47b38,
        type: 3}
      propertyPath: m_Name
      value: Huge_Painting_Entrepot
      objectReference: {fileID: 0}
    m_RemovedComponents: []
  m_SourcePrefab: {fileID: 100100000, guid: f8a7740bc48a3fe45b943dcec6c47b38, type: 3}
