%YAML 1.1
%TAG !u! tag:unity3d.com,2011:
--- !u!65 &1646383740944666799
BoxCollider:
  m_ObjectHideFlags: 0
  m_CorrespondingSourceObject: {fileID: 0}
  m_PrefabInstance: {fileID: 0}
  m_PrefabAsset: {fileID: 0}
  m_GameObject: {fileID: 6772532015587979257}
  m_Material: {fileID: 0}
  m_IsTrigger: 0
  m_Enabled: 1
  serializedVersion: 2
  m_Size: {x: 3.22, y: 0.05, z: 3.26}
  m_Center: {x: 0.00000023841858, y: 0.000000020954758, z: -0.00000011920929}
--- !u!1001 &3376909078069229296
PrefabInstance:
  m_ObjectHideFlags: 0
  serializedVersion: 2
  m_Modification:
    m_TransformParent: {fileID: 0}
    m_Modifications:
    - target: {fileID: -4216859302048453862, guid: 78a03de0b3c456142989fe99bd3e122c,
        type: 3}
      propertyPath: m_LocalPosition.x
      value: 0
      objectReference: {fileID: 0}
    - target: {fileID: -4216859302048453862, guid: 78a03de0b3c456142989fe99bd3e122c,
        type: 3}
      propertyPath: m_LocalPosition.y
      value: 0
      objectReference: {fileID: 0}
    - target: {fileID: -4216859302048453862, guid: 78a03de0b3c456142989fe99bd3e122c,
        type: 3}
      propertyPath: m_LocalPosition.z
      value: 0
      objectReference: {fileID: 0}
    - target: {fileID: -4216859302048453862, guid: 78a03de0b3c456142989fe99bd3e122c,
        type: 3}
      propertyPath: m_LocalRotation.x
      value: 0
      objectReference: {fileID: 0}
    - target: {fileID: -4216859302048453862, guid: 78a03de0b3c456142989fe99bd3e122c,
        type: 3}
      propertyPath: m_LocalRotation.y
      value: -0
      objectReference: {fileID: 0}
    - target: {fileID: -4216859302048453862, guid: 78a03de0b3c456142989fe99bd3e122c,
        type: 3}
      propertyPath: m_LocalRotation.z
      value: -0
      objectReference: {fileID: 0}
    - target: {fileID: -4216859302048453862, guid: 78a03de0b3c456142989fe99bd3e122c,
        type: 3}
      propertyPath: m_LocalRotation.w
      value: 1
      objectReference: {fileID: 0}
    - target: {fileID: -4216859302048453862, guid: 78a03de0b3c456142989fe99bd3e122c,
        type: 3}
      propertyPath: m_RootOrder
      value: 0
      objectReference: {fileID: 0}
    - target: {fileID: -4216859302048453862, guid: 78a03de0b3c456142989fe99bd3e122c,
        type: 3}
      propertyPath: m_LocalEulerAnglesHint.x
      value: 0
      objectReference: {fileID: 0}
    - target: {fileID: -4216859302048453862, guid: 78a03de0b3c456142989fe99bd3e122c,
        type: 3}
      propertyPath: m_LocalEulerAnglesHint.y
      value: 0
      objectReference: {fileID: 0}
    - target: {fileID: -4216859302048453862, guid: 78a03de0b3c456142989fe99bd3e122c,
        type: 3}
      propertyPath: m_LocalEulerAnglesHint.z
      value: 0
      objectReference: {fileID: 0}
    - target: {fileID: -927199367670048503, guid: 78a03de0b3c456142989fe99bd3e122c,
        type: 3}
      propertyPath: m_Name
      value: Rug_Geo Variant
      objectReference: {fileID: 0}
    - target: {fileID: -927199367670048503, guid: 78a03de0b3c456142989fe99bd3e122c,
        type: 3}
      propertyPath: m_TagString
      value: Carpet
      objectReference: {fileID: 0}
    m_RemovedComponents: []
  m_SourcePrefab: {fileID: 100100000, guid: 78a03de0b3c456142989fe99bd3e122c, type: 3}
--- !u!1 &6772532015587979257 stripped
GameObject:
  m_CorrespondingSourceObject: {fileID: -927199367670048503, guid: 78a03de0b3c456142989fe99bd3e122c,
    type: 3}
  m_PrefabInstance: {fileID: 3376909078069229296}
  m_PrefabAsset: {fileID: 0}
