%YAML 1.1
%TAG !u! tag:unity3d.com,2011:
--- !u!65 &780776010173674669
BoxCollider:
  m_ObjectHideFlags: 0
  m_CorrespondingSourceObject: {fileID: 0}
  m_PrefabInstance: {fileID: 0}
  m_PrefabAsset: {fileID: 0}
  m_GameObject: {fileID: 4293979809643287428}
  m_Material: {fileID: 0}
  m_IsTrigger: 0
  m_Enabled: 1
  serializedVersion: 2
  m_Size: {x: 1.4345849, y: 0.5529172, z: 0.66994923}
  m_Center: {x: 0.0023109321, y: 0.23200075, z: -0.0013668094}
--- !u!1001 &5239563183663057549
PrefabInstance:
  m_ObjectHideFlags: 0
  serializedVersion: 2
  m_Modification:
    m_TransformParent: {fileID: 0}
    m_Modifications:
    - target: {fileID: -4216859302048453862, guid: b335b6fd595a9054ab6f714d198a2b2f,
        type: 3}
      propertyPath: m_LocalPosition.x
      value: 1.9830837
      objectReference: {fileID: 0}
    - target: {fileID: -4216859302048453862, guid: b335b6fd595a9054ab6f714d198a2b2f,
        type: 3}
      propertyPath: m_LocalPosition.y
      value: -3.2978058
      objectReference: {fileID: 0}
    - target: {fileID: -4216859302048453862, guid: b335b6fd595a9054ab6f714d198a2b2f,
        type: 3}
      propertyPath: m_LocalPosition.z
      value: -4.4159985
      objectReference: {fileID: 0}
    - target: {fileID: -4216859302048453862, guid: b335b6fd595a9054ab6f714d198a2b2f,
        type: 3}
      propertyPath: m_LocalRotation.x
      value: -0
      objectReference: {fileID: 0}
    - target: {fileID: -4216859302048453862, guid: b335b6fd595a9054ab6f714d198a2b2f,
        type: 3}
      propertyPath: m_LocalRotation.y
      value: -0.7071068
      objectReference: {fileID: 0}
    - target: {fileID: -4216859302048453862, guid: b335b6fd595a9054ab6f714d198a2b2f,
        type: 3}
      propertyPath: m_LocalRotation.z
      value: -0
      objectReference: {fileID: 0}
    - target: {fileID: -4216859302048453862, guid: b335b6fd595a9054ab6f714d198a2b2f,
        type: 3}
      propertyPath: m_LocalRotation.w
      value: 0.7071068
      objectReference: {fileID: 0}
    - target: {fileID: -4216859302048453862, guid: b335b6fd595a9054ab6f714d198a2b2f,
        type: 3}
      propertyPath: m_RootOrder
      value: 0
      objectReference: {fileID: 0}
    - target: {fileID: -4216859302048453862, guid: b335b6fd595a9054ab6f714d198a2b2f,
        type: 3}
      propertyPath: m_LocalEulerAnglesHint.x
      value: 0
      objectReference: {fileID: 0}
    - target: {fileID: -4216859302048453862, guid: b335b6fd595a9054ab6f714d198a2b2f,
        type: 3}
      propertyPath: m_LocalEulerAnglesHint.y
      value: -90
      objectReference: {fileID: 0}
    - target: {fileID: -4216859302048453862, guid: b335b6fd595a9054ab6f714d198a2b2f,
        type: 3}
      propertyPath: m_LocalEulerAnglesHint.z
      value: 0
      objectReference: {fileID: 0}
    - target: {fileID: -927199367670048503, guid: b335b6fd595a9054ab6f714d198a2b2f,
        type: 3}
      propertyPath: m_Name
      value: Secretaire_Geo Variant
      objectReference: {fileID: 0}
    m_RemovedComponents: []
  m_SourcePrefab: {fileID: 100100000, guid: b335b6fd595a9054ab6f714d198a2b2f, type: 3}
--- !u!1 &4293979809643287428 stripped
GameObject:
  m_CorrespondingSourceObject: {fileID: -927199367670048503, guid: b335b6fd595a9054ab6f714d198a2b2f,
    type: 3}
  m_PrefabInstance: {fileID: 5239563183663057549}
  m_PrefabAsset: {fileID: 0}
