%YAML 1.1
%TAG !u! tag:unity3d.com,2011:
--- !u!114 &11400000
MonoBehaviour:
  m_ObjectHideFlags: 0
  m_CorrespondingSourceObject: {fileID: 0}
  m_PrefabInstance: {fileID: 0}
  m_PrefabAsset: {fileID: 0}
  m_GameObject: {fileID: 0}
  m_Enabled: 1
  m_EditorHideFlags: 0
  m_Script: {fileID: 11500000, guid: d60d416020d622d478bb876fd2c18143, type: 3}
  m_Name: Room 1 2
  m_EditorClassIdentifier: 
  wallTileset:
  - prefab: {fileID: 7600042041983060916, guid: c33ceb4374159c04d99db84013cf2e1a,
      type: 3}
  - prefab: {fileID: 3894643169653076878, guid: a8bcd1c479703d449b9619d2374a706a,
      type: 3}
  - prefab: {fileID: 3894643169653076878, guid: b6a87fa82b3cafa40b26adba19098018,
      type: 3}
  roofTileset:
  - prefab: {fileID: 8850664162340146642, guid: a5b49d4f0f4f1d54390e1fe142cac8dc,
      type: 3}
  floorTileset:
  - prefab: {fileID: 3301694650025787976, guid: ae4dd3a14899ecc44bf6de7079ab6b2b,
      type: 3}
