%YAML 1.1
%TAG !u! tag:unity3d.com,2011:
--- !u!114 &11400000
MonoBehaviour:
  m_ObjectHideFlags: 0
  m_CorrespondingSourceObject: {fileID: 0}
  m_PrefabInstance: {fileID: 0}
  m_PrefabAsset: {fileID: 0}
  m_GameObject: {fileID: 0}
  m_Enabled: 1
  m_EditorHideFlags: 0
  m_Script: {fileID: 11500000, guid: d60d416020d622d478bb876fd2c18143, type: 3}
  m_Name: Room 7
  m_EditorClassIdentifier: 
  wallTileset:
  - prefab: {fileID: 7296989654872030141, guid: 6dbca7e8a49301145bce0d9a1973f0b8,
      type: 3}
  - prefab: {fileID: 7342379999284900037, guid: 7b4769eba69665446bbe7b61c8daccae,
      type: 3}
  roofTileset:
  - prefab: {fileID: 4371008502220455910, guid: 8f83546e9b41c9c42a1c153e0acec62e,
      type: 3}
  floorTileset:
  - prefab: {fileID: 3558199730502078877, guid: c3b0fcf7528bb2e4eb3c5b07669f3de3,
      type: 3}
