%YAML 1.1
%TAG !u! tag:unity3d.com,2011:
--- !u!114 &11400000
MonoBehaviour:
  m_ObjectHideFlags: 0
  m_CorrespondingSourceObject: {fileID: 0}
  m_PrefabInstance: {fileID: 0}
  m_PrefabAsset: {fileID: 0}
  m_GameObject: {fileID: 0}
  m_Enabled: 1
  m_EditorHideFlags: 0
  m_Script: {fileID: 11500000, guid: d60d416020d622d478bb876fd2c18143, type: 3}
  m_Name: Room 4
  m_EditorClassIdentifier: 
  wallTileset:
  - prefab: {fileID: 2494518560188835967, guid: c3a222f2672eb2143a49c9792370db46,
      type: 3}
  - prefab: {fileID: 9152037320083172343, guid: ed7d5ec04f6dbeb4fa8ea4878d80cecd,
      type: 3}
  roofTileset:
  - prefab: {fileID: 4418792864126094666, guid: afd4af11b003f1048b00caeacb9bc373,
      type: 3}
  floorTileset:
  - prefab: {fileID: 6015636150970629888, guid: 2f235002985db5540a48b8f12c6365f6,
      type: 3}
