%YAML 1.1
%TAG !u! tag:unity3d.com,2011:
--- !u!114 &11400000
MonoBehaviour:
  m_ObjectHideFlags: 0
  m_CorrespondingSourceObject: {fileID: 0}
  m_PrefabInstance: {fileID: 0}
  m_PrefabAsset: {fileID: 0}
  m_GameObject: {fileID: 0}
  m_Enabled: 1
  m_EditorHideFlags: 0
  m_Script: {fileID: 11500000, guid: d60d416020d622d478bb876fd2c18143, type: 3}
  m_Name: SAS
  m_EditorClassIdentifier: 
  wallTileset:
  - prefab: {fileID: 7861684365201666526, guid: 9836d363100ae6147bec662048c9c8c4,
      type: 3}
  - prefab: {fileID: 157709270453039182, guid: af64a98fd2cb6f04e86648ed71553e95, type: 3}
  roofTileset:
  - prefab: {fileID: 3395702971385534599, guid: 17c4aaa8f167d074d87a33c8960aa567,
      type: 3}
  floorTileset:
  - prefab: {fileID: 5210289219873169384, guid: d4ff940862e88744f91f471b9e747c55,
      type: 3}
