%YAML 1.1
%TAG !u! tag:unity3d.com,2011:
--- !u!114 &11400000
MonoBehaviour:
  m_ObjectHideFlags: 0
  m_CorrespondingSourceObject: {fileID: 0}
  m_PrefabInstance: {fileID: 0}
  m_PrefabAsset: {fileID: 0}
  m_GameObject: {fileID: 0}
  m_Enabled: 1
  m_EditorHideFlags: 0
  m_Script: {fileID: 11500000, guid: 2a5c88ba0e8ae6146887ffeb84f22944, type: 3}
  m_Name: 018F95DC-3434-4D06-ADD0-0738306585CC
  m_EditorClassIdentifier: 
  objectName: Play_VoixAP_Salon4_5_ChuchotisS_CClara
  id: 512004586
  guid: 018F95DC-3434-4D06-ADD0-0738306585CC
