%YAML 1.1
%TAG !u! tag:unity3d.com,2011:
--- !u!114 &11400000
MonoBehaviour:
  m_ObjectHideFlags: 0
  m_CorrespondingSourceObject: {fileID: 0}
  m_PrefabInstance: {fileID: 0}
  m_PrefabAsset: {fileID: 0}
  m_GameObject: {fileID: 0}
  m_Enabled: 1
  m_EditorHideFlags: 0
  m_Script: {fileID: 11500000, guid: 2a5c88ba0e8ae6146887ffeb84f22944, type: 3}
  m_Name: 2B4E67D5-3264-4329-95FD-BAF7A03F167C
  m_EditorClassIdentifier: 
  objectName: Play_Fol_Telephone_Buzz_ElementAutres
  id: 574329133
  guid: 2B4E67D5-3264-4329-95FD-BAF7A03F167C
