%YAML 1.1
%TAG !u! tag:unity3d.com,2011:
--- !u!114 &11400000
MonoBehaviour:
  m_ObjectHideFlags: 0
  m_CorrespondingSourceObject: {fileID: 0}
  m_PrefabInstance: {fileID: 0}
  m_PrefabAsset: {fileID: 0}
  m_GameObject: {fileID: 0}
  m_Enabled: 1
  m_EditorHideFlags: 0
  m_Script: {fileID: 11500000, guid: 2a5c88ba0e8ae6146887ffeb84f22944, type: 3}
  m_Name: 33FAA476-790A-4E50-88AE-6275DE8B22B7
  m_EditorClassIdentifier: 
  objectName: Play_FX_PassageGlitchstep
  id: 2565472060
  guid: 33FAA476-790A-4E50-88AE-6275DE8B22B7
