%YAML 1.1
%TAG !u! tag:unity3d.com,2011:
--- !u!114 &11400000
MonoBehaviour:
  m_ObjectHideFlags: 0
  m_CorrespondingSourceObject: {fileID: 0}
  m_PrefabInstance: {fileID: 0}
  m_PrefabAsset: {fileID: 0}
  m_GameObject: {fileID: 0}
  m_Enabled: 1
  m_EditorHideFlags: 0
  m_Script: {fileID: 11500000, guid: 2a5c88ba0e8ae6146887ffeb84f22944, type: 3}
  m_Name: A7B39B1C-2FC9-4586-AD68-8C23E9B6E882
  m_EditorClassIdentifier: 
  objectName: Play_Fol_Chaise2_Chuchotis1
  id: 4081192429
  guid: A7B39B1C-2FC9-4586-AD68-8C23E9B6E882
