%YAML 1.1
%TAG !u! tag:unity3d.com,2011:
--- !u!114 &11400000
MonoBehaviour:
  m_ObjectHideFlags: 0
  m_CorrespondingSourceObject: {fileID: 0}
  m_PrefabInstance: {fileID: 0}
  m_PrefabAsset: {fileID: 0}
  m_GameObject: {fileID: 0}
  m_Enabled: 1
  m_EditorHideFlags: 0
  m_Script: {fileID: 11500000, guid: 2a5c88ba0e8ae6146887ffeb84f22944, type: 3}
  m_Name: DD287B95-A748-48E5-B76E-9BF476DA5582
  m_EditorClassIdentifier: 
  objectName: Play_Amb_Vest_SShots_Chuchotis_STATES
  id: 4092207124
  guid: DD287B95-A748-48E5-B76E-9BF476DA5582
