%YAML 1.1
%TAG !u! tag:unity3d.com,2011:
--- !u!114 &11400000
MonoBehaviour:
  m_ObjectHideFlags: 0
  m_CorrespondingSourceObject: {fileID: 0}
  m_PrefabInstance: {fileID: 0}
  m_PrefabAsset: {fileID: 0}
  m_GameObject: {fileID: 0}
  m_Enabled: 1
  m_EditorHideFlags: 0
  m_Script: {fileID: 11500000, guid: 2a5c88ba0e8ae6146887ffeb84f22944, type: 3}
  m_Name: FD2925AB-6802-437A-A925-94698455B8EA
  m_EditorClassIdentifier: 
  objectName: Play_VoixAP_Entrepot_3_UC_Emitter
  id: 146049963
  guid: FD2925AB-6802-437A-A925-94698455B8EA
