%YAML 1.1
%TAG !u! tag:unity3d.com,2011:
--- !u!114 &11400000
MonoBehaviour:
  m_ObjectHideFlags: 0
  m_CorrespondingSourceObject: {fileID: 0}
  m_PrefabInstance: {fileID: 0}
  m_PrefabAsset: {fileID: 0}
  m_GameObject: {fileID: 0}
  m_Enabled: 1
  m_EditorHideFlags: 0
  m_Script: {fileID: 11500000, guid: 2a5c88ba0e8ae6146887ffeb84f22944, type: 3}
  m_Name: FD6424CE-21A6-4FC0-8FDA-5BB3F8B3A811
  m_EditorClassIdentifier: 
  objectName: Play_VoixAP_Entrepot_1_UM
  id: 1520358452
  guid: FD6424CE-21A6-4FC0-8FDA-5BB3F8B3A811
