%YAML 1.1
%TAG !u! tag:unity3d.com,2011:
--- !u!1001 &3263944325502583421
PrefabInstance:
  m_ObjectHideFlags: 0
  serializedVersion: 2
  m_Modification:
    m_TransformParent: {fileID: 0}
    m_Modifications:
    - target: {fileID: 5169266336742991434, guid: 8cd8570f2fb2a5244822b2f737a2bd4a,
        type: 3}
      propertyPath: m_Name
      value: Chair_Geo Variant
      objectReference: {fileID: 0}
    - target: {fileID: 8207728409571595353, guid: 8cd8570f2fb2a5244822b2f737a2bd4a,
        type: 3}
      propertyPath: m_RootOrder
      value: 0
      objectReference: {fileID: 0}
    - target: {fileID: 8207728409571595353, guid: 8cd8570f2fb2a5244822b2f737a2bd4a,
        type: 3}
      propertyPath: m_LocalEulerAnglesHint.x
      value: 0
      objectReference: {fileID: 0}
    - target: {fileID: 8207728409571595353, guid: 8cd8570f2fb2a5244822b2f737a2bd4a,
        type: 3}
      propertyPath: m_LocalEulerAnglesHint.y
      value: 0
      objectReference: {fileID: 0}
    - target: {fileID: 8207728409571595353, guid: 8cd8570f2fb2a5244822b2f737a2bd4a,
        type: 3}
      propertyPath: m_LocalEulerAnglesHint.z
      value: 0
      objectReference: {fileID: 0}
    m_RemovedComponents: []
  m_SourcePrefab: {fileID: 100100000, guid: 8cd8570f2fb2a5244822b2f737a2bd4a, type: 3}
