%YAML 1.1
%TAG !u! tag:unity3d.com,2011:
--- !u!65 &443926258402086762
BoxCollider:
  m_ObjectHideFlags: 0
  m_CorrespondingSourceObject: {fileID: 0}
  m_PrefabInstance: {fileID: 0}
  m_PrefabAsset: {fileID: 0}
  m_GameObject: {fileID: 4895112373304444351}
  m_Material: {fileID: 0}
  m_IsTrigger: 0
  m_Enabled: 1
  serializedVersion: 2
  m_Size: {x: 1, y: 1, z: 1}
  m_Center: {x: 0, y: 0, z: 0}
--- !u!1001 &3517034037906578614
PrefabInstance:
  m_ObjectHideFlags: 0
  serializedVersion: 2
  m_Modification:
    m_TransformParent: {fileID: 0}
    m_Modifications:
    - target: {fileID: -5448718368789525328, guid: 31ce4383d50c54b4cb2b56492f91e9b9,
        type: 3}
      propertyPath: m_StaticEditorFlags
      value: 4294967295
      objectReference: {fileID: 0}
    - target: {fileID: -4216859302048453862, guid: 31ce4383d50c54b4cb2b56492f91e9b9,
        type: 3}
      propertyPath: m_LocalPosition.x
      value: -1.571
      objectReference: {fileID: 0}
    - target: {fileID: -4216859302048453862, guid: 31ce4383d50c54b4cb2b56492f91e9b9,
        type: 3}
      propertyPath: m_LocalPosition.y
      value: -0.92808175
      objectReference: {fileID: 0}
    - target: {fileID: -4216859302048453862, guid: 31ce4383d50c54b4cb2b56492f91e9b9,
        type: 3}
      propertyPath: m_LocalPosition.z
      value: -3.138
      objectReference: {fileID: 0}
    - target: {fileID: -4216859302048453862, guid: 31ce4383d50c54b4cb2b56492f91e9b9,
        type: 3}
      propertyPath: m_LocalRotation.x
      value: -0
      objectReference: {fileID: 0}
    - target: {fileID: -4216859302048453862, guid: 31ce4383d50c54b4cb2b56492f91e9b9,
        type: 3}
      propertyPath: m_LocalRotation.y
      value: -0
      objectReference: {fileID: 0}
    - target: {fileID: -4216859302048453862, guid: 31ce4383d50c54b4cb2b56492f91e9b9,
        type: 3}
      propertyPath: m_LocalRotation.z
      value: -0
      objectReference: {fileID: 0}
    - target: {fileID: -4216859302048453862, guid: 31ce4383d50c54b4cb2b56492f91e9b9,
        type: 3}
      propertyPath: m_LocalRotation.w
      value: 1
      objectReference: {fileID: 0}
    - target: {fileID: -4216859302048453862, guid: 31ce4383d50c54b4cb2b56492f91e9b9,
        type: 3}
      propertyPath: m_RootOrder
      value: 0
      objectReference: {fileID: 0}
    - target: {fileID: -4216859302048453862, guid: 31ce4383d50c54b4cb2b56492f91e9b9,
        type: 3}
      propertyPath: m_LocalEulerAnglesHint.x
      value: 0
      objectReference: {fileID: 0}
    - target: {fileID: -4216859302048453862, guid: 31ce4383d50c54b4cb2b56492f91e9b9,
        type: 3}
      propertyPath: m_LocalEulerAnglesHint.y
      value: 0
      objectReference: {fileID: 0}
    - target: {fileID: -4216859302048453862, guid: 31ce4383d50c54b4cb2b56492f91e9b9,
        type: 3}
      propertyPath: m_LocalEulerAnglesHint.z
      value: 0
      objectReference: {fileID: 0}
    - target: {fileID: -2224116350752272430, guid: 31ce4383d50c54b4cb2b56492f91e9b9,
        type: 3}
      propertyPath: m_StaticEditorFlags
      value: 4294967295
      objectReference: {fileID: 0}
    - target: {fileID: -927199367670048503, guid: 31ce4383d50c54b4cb2b56492f91e9b9,
        type: 3}
      propertyPath: m_Name
      value: Chair_Geo Variant
      objectReference: {fileID: 0}
    - target: {fileID: -927199367670048503, guid: 31ce4383d50c54b4cb2b56492f91e9b9,
        type: 3}
      propertyPath: m_StaticEditorFlags
      value: 4294967295
      objectReference: {fileID: 0}
    - target: {fileID: -477134740964896218, guid: 31ce4383d50c54b4cb2b56492f91e9b9,
        type: 3}
      propertyPath: m_StaticEditorFlags
      value: 4294967295
      objectReference: {fileID: 0}
    - target: {fileID: 1629436824304140165, guid: 31ce4383d50c54b4cb2b56492f91e9b9,
        type: 3}
      propertyPath: m_StaticEditorFlags
      value: 4294967295
      objectReference: {fileID: 0}
    - target: {fileID: 2316667608115692065, guid: 31ce4383d50c54b4cb2b56492f91e9b9,
        type: 3}
      propertyPath: m_StaticEditorFlags
      value: 4294967295
      objectReference: {fileID: 0}
    - target: {fileID: 3399516285646137536, guid: 31ce4383d50c54b4cb2b56492f91e9b9,
        type: 3}
      propertyPath: m_StaticEditorFlags
      value: 4294967295
      objectReference: {fileID: 0}
    - target: {fileID: 5696618982783577219, guid: 31ce4383d50c54b4cb2b56492f91e9b9,
        type: 3}
      propertyPath: m_StaticEditorFlags
      value: 4294967295
      objectReference: {fileID: 0}
    - target: {fileID: 7333006536390689955, guid: 31ce4383d50c54b4cb2b56492f91e9b9,
        type: 3}
      propertyPath: m_StaticEditorFlags
      value: 4294967295
      objectReference: {fileID: 0}
    m_RemovedComponents: []
  m_SourcePrefab: {fileID: 100100000, guid: 31ce4383d50c54b4cb2b56492f91e9b9, type: 3}
--- !u!1 &4895112373304444351 stripped
GameObject:
  m_CorrespondingSourceObject: {fileID: -927199367670048503, guid: 31ce4383d50c54b4cb2b56492f91e9b9,
    type: 3}
  m_PrefabInstance: {fileID: 3517034037906578614}
  m_PrefabAsset: {fileID: 0}
