%YAML 1.1
%TAG !u! tag:unity3d.com,2011:
--- !u!65 &-5672130887509209926
BoxCollider:
  m_ObjectHideFlags: 0
  m_CorrespondingSourceObject: {fileID: 0}
  m_PrefabInstance: {fileID: 0}
  m_PrefabAsset: {fileID: 0}
  m_GameObject: {fileID: 4138421591285488999}
  m_Material: {fileID: 0}
  m_IsTrigger: 0
  m_Enabled: 1
  serializedVersion: 2
  m_Size: {x: 1, y: 1, z: 1}
  m_Center: {x: 0, y: 0, z: 0}
--- !u!1001 &5354583782725747822
PrefabInstance:
  m_ObjectHideFlags: 0
  serializedVersion: 2
  m_Modification:
    m_TransformParent: {fileID: 0}
    m_Modifications:
    - target: {fileID: -4216859302048453862, guid: c4f72fabb54823448b8e6e9217564e85,
        type: 3}
      propertyPath: m_LocalPosition.x
      value: 2.7789993
      objectReference: {fileID: 0}
    - target: {fileID: -4216859302048453862, guid: c4f72fabb54823448b8e6e9217564e85,
        type: 3}
      propertyPath: m_LocalPosition.y
      value: -0.8499327
      objectReference: {fileID: 0}
    - target: {fileID: -4216859302048453862, guid: c4f72fabb54823448b8e6e9217564e85,
        type: 3}
      propertyPath: m_LocalPosition.z
      value: 0.5390001
      objectReference: {fileID: 0}
    - target: {fileID: -4216859302048453862, guid: c4f72fabb54823448b8e6e9217564e85,
        type: 3}
      propertyPath: m_LocalRotation.x
      value: -0
      objectReference: {fileID: 0}
    - target: {fileID: -4216859302048453862, guid: c4f72fabb54823448b8e6e9217564e85,
        type: 3}
      propertyPath: m_LocalRotation.y
      value: -0.7071068
      objectReference: {fileID: 0}
    - target: {fileID: -4216859302048453862, guid: c4f72fabb54823448b8e6e9217564e85,
        type: 3}
      propertyPath: m_LocalRotation.z
      value: -0
      objectReference: {fileID: 0}
    - target: {fileID: -4216859302048453862, guid: c4f72fabb54823448b8e6e9217564e85,
        type: 3}
      propertyPath: m_LocalRotation.w
      value: 0.7071068
      objectReference: {fileID: 0}
    - target: {fileID: -4216859302048453862, guid: c4f72fabb54823448b8e6e9217564e85,
        type: 3}
      propertyPath: m_RootOrder
      value: 0
      objectReference: {fileID: 0}
    - target: {fileID: -4216859302048453862, guid: c4f72fabb54823448b8e6e9217564e85,
        type: 3}
      propertyPath: m_LocalEulerAnglesHint.x
      value: 0
      objectReference: {fileID: 0}
    - target: {fileID: -4216859302048453862, guid: c4f72fabb54823448b8e6e9217564e85,
        type: 3}
      propertyPath: m_LocalEulerAnglesHint.y
      value: -90
      objectReference: {fileID: 0}
    - target: {fileID: -4216859302048453862, guid: c4f72fabb54823448b8e6e9217564e85,
        type: 3}
      propertyPath: m_LocalEulerAnglesHint.z
      value: 0
      objectReference: {fileID: 0}
    - target: {fileID: -927199367670048503, guid: c4f72fabb54823448b8e6e9217564e85,
        type: 3}
      propertyPath: m_Name
      value: Couch_Geo Variant
      objectReference: {fileID: 0}
    m_RemovedComponents: []
  m_SourcePrefab: {fileID: 100100000, guid: c4f72fabb54823448b8e6e9217564e85, type: 3}
--- !u!1 &4138421591285488999 stripped
GameObject:
  m_CorrespondingSourceObject: {fileID: -927199367670048503, guid: c4f72fabb54823448b8e6e9217564e85,
    type: 3}
  m_PrefabInstance: {fileID: 5354583782725747822}
  m_PrefabAsset: {fileID: 0}
