%YAML 1.1
%TAG !u! tag:unity3d.com,2011:
--- !u!1001 &6925623026159176747
PrefabInstance:
  m_ObjectHideFlags: 0
  serializedVersion: 2
  m_Modification:
    m_TransformParent: {fileID: 0}
    m_Modifications:
    - target: {fileID: 250715737109321303, guid: f4dd66eabff79f14cbf358a667082a5c,
        type: 3}
      propertyPath: m_StaticEditorFlags
      value: 0
      objectReference: {fileID: 0}
    - target: {fileID: 1940414124404587769, guid: f4dd66eabff79f14cbf358a667082a5c,
        type: 3}
      propertyPath: m_RootOrder
      value: 0
      objectReference: {fileID: 0}
    - target: {fileID: 1940414124404587769, guid: f4dd66eabff79f14cbf358a667082a5c,
        type: 3}
      propertyPath: m_LocalEulerAnglesHint.x
      value: 0
      objectReference: {fileID: 0}
    - target: {fileID: 1940414124404587769, guid: f4dd66eabff79f14cbf358a667082a5c,
        type: 3}
      propertyPath: m_LocalEulerAnglesHint.y
      value: 90
      objectReference: {fileID: 0}
    - target: {fileID: 1940414124404587769, guid: f4dd66eabff79f14cbf358a667082a5c,
        type: 3}
      propertyPath: m_LocalEulerAnglesHint.z
      value: 0
      objectReference: {fileID: 0}
    - target: {fileID: 3220966167968206827, guid: f4dd66eabff79f14cbf358a667082a5c,
        type: 3}
      propertyPath: m_StaticEditorFlags
      value: 0
      objectReference: {fileID: 0}
    - target: {fileID: 3222014944532745962, guid: f4dd66eabff79f14cbf358a667082a5c,
        type: 3}
      propertyPath: m_Name
      value: Phone_Geo Variant Variant
      objectReference: {fileID: 0}
    - target: {fileID: 3222014944532745962, guid: f4dd66eabff79f14cbf358a667082a5c,
        type: 3}
      propertyPath: m_StaticEditorFlags
      value: 0
      objectReference: {fileID: 0}
    - target: {fileID: 3785895103756630582, guid: f4dd66eabff79f14cbf358a667082a5c,
        type: 3}
      propertyPath: m_Materials.Array.data[0]
      value: 
      objectReference: {fileID: 2100000, guid: 877033a0cb7912a4e9b58191c4a02d25, type: 2}
    - target: {fileID: 8096855124016898515, guid: f4dd66eabff79f14cbf358a667082a5c,
        type: 3}
      propertyPath: m_StaticEditorFlags
      value: 0
      objectReference: {fileID: 0}
    - target: {fileID: 8229029376924829281, guid: f4dd66eabff79f14cbf358a667082a5c,
        type: 3}
      propertyPath: m_StaticEditorFlags
      value: 0
      objectReference: {fileID: 0}
    - target: {fileID: 8673972794363642265, guid: f4dd66eabff79f14cbf358a667082a5c,
        type: 3}
      propertyPath: m_StaticEditorFlags
      value: 0
      objectReference: {fileID: 0}
    m_RemovedComponents: []
  m_SourcePrefab: {fileID: 100100000, guid: f4dd66eabff79f14cbf358a667082a5c, type: 3}
