%YAML 1.1
%TAG !u! tag:unity3d.com,2011:
--- !u!65 &842812081737778771
BoxCollider:
  m_ObjectHideFlags: 0
  m_CorrespondingSourceObject: {fileID: 0}
  m_PrefabInstance: {fileID: 0}
  m_PrefabAsset: {fileID: 0}
  m_GameObject: {fileID: 3165035681749746893}
  m_Material: {fileID: 0}
  m_IsTrigger: 0
  m_Enabled: 1
  serializedVersion: 2
  m_Size: {x: 1.5, y: 3, z: 0.19999999}
  m_Center: {x: 0, y: 0, z: 0}
--- !u!1001 &6398940213391793604
PrefabInstance:
  m_ObjectHideFlags: 0
  serializedVersion: 2
  m_Modification:
    m_TransformParent: {fileID: 0}
    m_Modifications:
    - target: {fileID: -4216859302048453862, guid: aae111884e2dc1b4e948f31f6d2a1045,
        type: 3}
      propertyPath: m_LocalPosition.x
      value: 0
      objectReference: {fileID: 0}
    - target: {fileID: -4216859302048453862, guid: aae111884e2dc1b4e948f31f6d2a1045,
        type: 3}
      propertyPath: m_LocalPosition.y
      value: 0
      objectReference: {fileID: 0}
    - target: {fileID: -4216859302048453862, guid: aae111884e2dc1b4e948f31f6d2a1045,
        type: 3}
      propertyPath: m_LocalPosition.z
      value: 0
      objectReference: {fileID: 0}
    - target: {fileID: -4216859302048453862, guid: aae111884e2dc1b4e948f31f6d2a1045,
        type: 3}
      propertyPath: m_LocalRotation.x
      value: 0
      objectReference: {fileID: 0}
    - target: {fileID: -4216859302048453862, guid: aae111884e2dc1b4e948f31f6d2a1045,
        type: 3}
      propertyPath: m_LocalRotation.y
      value: -0
      objectReference: {fileID: 0}
    - target: {fileID: -4216859302048453862, guid: aae111884e2dc1b4e948f31f6d2a1045,
        type: 3}
      propertyPath: m_LocalRotation.z
      value: -0
      objectReference: {fileID: 0}
    - target: {fileID: -4216859302048453862, guid: aae111884e2dc1b4e948f31f6d2a1045,
        type: 3}
      propertyPath: m_LocalRotation.w
      value: 1
      objectReference: {fileID: 0}
    - target: {fileID: -4216859302048453862, guid: aae111884e2dc1b4e948f31f6d2a1045,
        type: 3}
      propertyPath: m_RootOrder
      value: 0
      objectReference: {fileID: 0}
    - target: {fileID: -4216859302048453862, guid: aae111884e2dc1b4e948f31f6d2a1045,
        type: 3}
      propertyPath: m_LocalEulerAnglesHint.x
      value: 0
      objectReference: {fileID: 0}
    - target: {fileID: -4216859302048453862, guid: aae111884e2dc1b4e948f31f6d2a1045,
        type: 3}
      propertyPath: m_LocalEulerAnglesHint.y
      value: 0
      objectReference: {fileID: 0}
    - target: {fileID: -4216859302048453862, guid: aae111884e2dc1b4e948f31f6d2a1045,
        type: 3}
      propertyPath: m_LocalEulerAnglesHint.z
      value: 0
      objectReference: {fileID: 0}
    - target: {fileID: -927199367670048503, guid: aae111884e2dc1b4e948f31f6d2a1045,
        type: 3}
      propertyPath: m_Name
      value: Wall_Painting_Small_Up_Bent_Left
      objectReference: {fileID: 0}
    m_RemovedComponents: []
  m_SourcePrefab: {fileID: 100100000, guid: aae111884e2dc1b4e948f31f6d2a1045, type: 3}
--- !u!1 &3165035681749746893 stripped
GameObject:
  m_CorrespondingSourceObject: {fileID: -927199367670048503, guid: aae111884e2dc1b4e948f31f6d2a1045,
    type: 3}
  m_PrefabInstance: {fileID: 6398940213391793604}
  m_PrefabAsset: {fileID: 0}
