%YAML 1.1
%TAG !u! tag:unity3d.com,2011:
--- !u!1001 &1949348200181401033
PrefabInstance:
  m_ObjectHideFlags: 0
  serializedVersion: 2
  m_Modification:
    m_TransformParent: {fileID: 0}
    m_Modifications:
    - target: {fileID: 1940414124404587769, guid: f4dd66eabff79f14cbf358a667082a5c,
        type: 3}
      propertyPath: m_RootOrder
      value: 0
      objectReference: {fileID: 0}
    - target: {fileID: 1940414124404587769, guid: f4dd66eabff79f14cbf358a667082a5c,
        type: 3}
      propertyPath: m_LocalEulerAnglesHint.x
      value: 0
      objectReference: {fileID: 0}
    - target: {fileID: 1940414124404587769, guid: f4dd66eabff79f14cbf358a667082a5c,
        type: 3}
      propertyPath: m_LocalEulerAnglesHint.y
      value: 0
      objectReference: {fileID: 0}
    - target: {fileID: 1940414124404587769, guid: f4dd66eabff79f14cbf358a667082a5c,
        type: 3}
      propertyPath: m_LocalEulerAnglesHint.z
      value: 0
      objectReference: {fileID: 0}
    - target: {fileID: 3222014944532745962, guid: f4dd66eabff79f14cbf358a667082a5c,
        type: 3}
      propertyPath: m_Name
      value: Phone_Geo Variant
      objectReference: {fileID: 0}
    m_RemovedComponents: []
  m_SourcePrefab: {fileID: 100100000, guid: f4dd66eabff79f14cbf358a667082a5c, type: 3}
