%YAML 1.1
%TAG !u! tag:unity3d.com,2011:
--- !u!1001 &444716050208055881
PrefabInstance:
  m_ObjectHideFlags: 0
  serializedVersion: 2
  m_Modification:
    m_TransformParent: {fileID: 0}
    m_Modifications:
    - target: {fileID: 1831731740493387092, guid: 2034d2bf411c2d6458d3e8d1d81830a3,
        type: 3}
      propertyPath: m_LocalPosition.x
      value: 0
      objectReference: {fileID: 0}
    - target: {fileID: 1831731740493387092, guid: 2034d2bf411c2d6458d3e8d1d81830a3,
        type: 3}
      propertyPath: m_LocalPosition.y
      value: 0
      objectReference: {fileID: 0}
    - target: {fileID: 1831731740493387092, guid: 2034d2bf411c2d6458d3e8d1d81830a3,
        type: 3}
      propertyPath: m_LocalPosition.z
      value: 0
      objectReference: {fileID: 0}
    - target: {fileID: 1831731740493387092, guid: 2034d2bf411c2d6458d3e8d1d81830a3,
        type: 3}
      propertyPath: m_LocalRotation.x
      value: 0
      objectReference: {fileID: 0}
    - target: {fileID: 1831731740493387092, guid: 2034d2bf411c2d6458d3e8d1d81830a3,
        type: 3}
      propertyPath: m_LocalRotation.y
      value: -0
      objectReference: {fileID: 0}
    - target: {fileID: 1831731740493387092, guid: 2034d2bf411c2d6458d3e8d1d81830a3,
        type: 3}
      propertyPath: m_LocalRotation.z
      value: -0
      objectReference: {fileID: 0}
    - target: {fileID: 1831731740493387092, guid: 2034d2bf411c2d6458d3e8d1d81830a3,
        type: 3}
      propertyPath: m_LocalRotation.w
      value: 1
      objectReference: {fileID: 0}
    - target: {fileID: 1831731740493387092, guid: 2034d2bf411c2d6458d3e8d1d81830a3,
        type: 3}
      propertyPath: m_RootOrder
      value: 0
      objectReference: {fileID: 0}
    - target: {fileID: 1831731740493387092, guid: 2034d2bf411c2d6458d3e8d1d81830a3,
        type: 3}
      propertyPath: m_LocalEulerAnglesHint.x
      value: 0
      objectReference: {fileID: 0}
    - target: {fileID: 1831731740493387092, guid: 2034d2bf411c2d6458d3e8d1d81830a3,
        type: 3}
      propertyPath: m_LocalEulerAnglesHint.y
      value: 0
      objectReference: {fileID: 0}
    - target: {fileID: 1831731740493387092, guid: 2034d2bf411c2d6458d3e8d1d81830a3,
        type: 3}
      propertyPath: m_LocalEulerAnglesHint.z
      value: 0
      objectReference: {fileID: 0}
    - target: {fileID: 3400437109024909127, guid: 2034d2bf411c2d6458d3e8d1d81830a3,
        type: 3}
      propertyPath: m_Name
      value: Secretaire_Geo Variant
      objectReference: {fileID: 0}
    m_RemovedComponents: []
  m_SourcePrefab: {fileID: 100100000, guid: 2034d2bf411c2d6458d3e8d1d81830a3, type: 3}
