%YAML 1.1
%TAG !u! tag:unity3d.com,2011:
--- !u!1001 &7710500400427175540
PrefabInstance:
  m_ObjectHideFlags: 0
  serializedVersion: 2
  m_Modification:
    m_TransformParent: {fileID: 0}
    m_Modifications:
    - target: {fileID: 2211024065746768998, guid: cb9b1c976ade3c149b5abdb58f120577,
        type: 3}
      propertyPath: m_LocalPosition.x
      value: -19.305292
      objectReference: {fileID: 0}
    - target: {fileID: 2211024065746768998, guid: cb9b1c976ade3c149b5abdb58f120577,
        type: 3}
      propertyPath: m_LocalPosition.y
      value: -0.84409153
      objectReference: {fileID: 0}
    - target: {fileID: 2211024065746768998, guid: cb9b1c976ade3c149b5abdb58f120577,
        type: 3}
      propertyPath: m_LocalPosition.z
      value: 8.871094
      objectReference: {fileID: 0}
    - target: {fileID: 2211024065746768998, guid: cb9b1c976ade3c149b5abdb58f120577,
        type: 3}
      propertyPath: m_LocalRotation.x
      value: -0
      objectReference: {fileID: 0}
    - target: {fileID: 2211024065746768998, guid: cb9b1c976ade3c149b5abdb58f120577,
        type: 3}
      propertyPath: m_LocalRotation.y
      value: -0
      objectReference: {fileID: 0}
    - target: {fileID: 2211024065746768998, guid: cb9b1c976ade3c149b5abdb58f120577,
        type: 3}
      propertyPath: m_LocalRotation.z
      value: -0
      objectReference: {fileID: 0}
    - target: {fileID: 2211024065746768998, guid: cb9b1c976ade3c149b5abdb58f120577,
        type: 3}
      propertyPath: m_LocalRotation.w
      value: 1
      objectReference: {fileID: 0}
    - target: {fileID: 2211024065746768998, guid: cb9b1c976ade3c149b5abdb58f120577,
        type: 3}
      propertyPath: m_RootOrder
      value: 0
      objectReference: {fileID: 0}
    - target: {fileID: 2211024065746768998, guid: cb9b1c976ade3c149b5abdb58f120577,
        type: 3}
      propertyPath: m_LocalEulerAnglesHint.x
      value: 0
      objectReference: {fileID: 0}
    - target: {fileID: 2211024065746768998, guid: cb9b1c976ade3c149b5abdb58f120577,
        type: 3}
      propertyPath: m_LocalEulerAnglesHint.y
      value: 0
      objectReference: {fileID: 0}
    - target: {fileID: 2211024065746768998, guid: cb9b1c976ade3c149b5abdb58f120577,
        type: 3}
      propertyPath: m_LocalEulerAnglesHint.z
      value: 0
      objectReference: {fileID: 0}
    - target: {fileID: 2951119396987987573, guid: cb9b1c976ade3c149b5abdb58f120577,
        type: 3}
      propertyPath: m_Name
      value: Floor_Tile_Geo Variant
      objectReference: {fileID: 0}
    m_RemovedComponents: []
  m_SourcePrefab: {fileID: 100100000, guid: cb9b1c976ade3c149b5abdb58f120577, type: 3}
