%YAML 1.1
%TAG !u! tag:unity3d.com,2011:
--- !u!1001 &7034503569274598937
PrefabInstance:
  m_ObjectHideFlags: 0
  serializedVersion: 2
  m_Modification:
    m_TransformParent: {fileID: 0}
    m_Modifications:
    - target: {fileID: 5488948426652801417, guid: 6863ce93ff0291f4aa8ae28dcfa1a993,
        type: 3}
      propertyPath: m_Name
      value: Phonograph_Geo Variant
      objectReference: {fileID: 0}
    - target: {fileID: 8824786271818918810, guid: 6863ce93ff0291f4aa8ae28dcfa1a993,
        type: 3}
      propertyPath: m_RootOrder
      value: 0
      objectReference: {fileID: 0}
    - target: {fileID: 8824786271818918810, guid: 6863ce93ff0291f4aa8ae28dcfa1a993,
        type: 3}
      propertyPath: m_LocalEulerAnglesHint.x
      value: 0
      objectReference: {fileID: 0}
    - target: {fileID: 8824786271818918810, guid: 6863ce93ff0291f4aa8ae28dcfa1a993,
        type: 3}
      propertyPath: m_LocalEulerAnglesHint.y
      value: 0
      objectReference: {fileID: 0}
    - target: {fileID: 8824786271818918810, guid: 6863ce93ff0291f4aa8ae28dcfa1a993,
        type: 3}
      propertyPath: m_LocalEulerAnglesHint.z
      value: 0
      objectReference: {fileID: 0}
    m_RemovedComponents: []
  m_SourcePrefab: {fileID: 100100000, guid: 6863ce93ff0291f4aa8ae28dcfa1a993, type: 3}
