%YAML 1.1
%TAG !u! tag:unity3d.com,2011:
--- !u!1001 &8962361971899362534
PrefabInstance:
  m_ObjectHideFlags: 0
  serializedVersion: 2
  m_Modification:
    m_TransformParent: {fileID: 0}
    m_Modifications:
    - target: {fileID: 2211024065746768998, guid: 7d3dc1d7bcb8fa24290432ce51947f8d,
        type: 3}
      propertyPath: m_LocalRotation.x
      value: 0
      objectReference: {fileID: 0}
    - target: {fileID: 2211024065746768998, guid: 7d3dc1d7bcb8fa24290432ce51947f8d,
        type: 3}
      propertyPath: m_LocalRotation.y
      value: -0
      objectReference: {fileID: 0}
    - target: {fileID: 2211024065746768998, guid: 7d3dc1d7bcb8fa24290432ce51947f8d,
        type: 3}
      propertyPath: m_LocalRotation.z
      value: -0
      objectReference: {fileID: 0}
    - target: {fileID: 2211024065746768998, guid: 7d3dc1d7bcb8fa24290432ce51947f8d,
        type: 3}
      propertyPath: m_LocalRotation.w
      value: 1
      objectReference: {fileID: 0}
    - target: {fileID: 2211024065746768998, guid: 7d3dc1d7bcb8fa24290432ce51947f8d,
        type: 3}
      propertyPath: m_RootOrder
      value: 0
      objectReference: {fileID: 0}
    - target: {fileID: 2211024065746768998, guid: 7d3dc1d7bcb8fa24290432ce51947f8d,
        type: 3}
      propertyPath: m_LocalEulerAnglesHint.x
      value: 0
      objectReference: {fileID: 0}
    - target: {fileID: 2211024065746768998, guid: 7d3dc1d7bcb8fa24290432ce51947f8d,
        type: 3}
      propertyPath: m_LocalEulerAnglesHint.y
      value: 0
      objectReference: {fileID: 0}
    - target: {fileID: 2211024065746768998, guid: 7d3dc1d7bcb8fa24290432ce51947f8d,
        type: 3}
      propertyPath: m_LocalEulerAnglesHint.z
      value: 0
      objectReference: {fileID: 0}
    - target: {fileID: 2951119396987987573, guid: 7d3dc1d7bcb8fa24290432ce51947f8d,
        type: 3}
      propertyPath: m_Name
      value: Ceiling_Tile_Geo 3 Variant
      objectReference: {fileID: 0}
    - target: {fileID: 3515250240182145705, guid: 7d3dc1d7bcb8fa24290432ce51947f8d,
        type: 3}
      propertyPath: m_Materials.Array.data[0]
      value: 
      objectReference: {fileID: 2100000, guid: 16cb2203440c3ab4caa3285a443e0064, type: 2}
    m_RemovedComponents: []
  m_SourcePrefab: {fileID: 100100000, guid: 7d3dc1d7bcb8fa24290432ce51947f8d, type: 3}
