%YAML 1.1
%TAG !u! tag:unity3d.com,2011:
--- !u!114 &11400000
MonoBehaviour:
  m_ObjectHideFlags: 0
  m_CorrespondingSourceObject: {fileID: 0}
  m_PrefabInstance: {fileID: 0}
  m_PrefabAsset: {fileID: 0}
  m_GameObject: {fileID: 0}
  m_Enabled: 1
  m_EditorHideFlags: 0
  m_Script: {fileID: 11500000, guid: a3c8277ca9eb40140a64e21ba4227a74, type: 3}
  m_Name: 1.0-V
  m_EditorClassIdentifier: 
  approxDuration: 0
  lineInfos:
  - delay: 3
    duration: 3
    text: Couldn't get to the core.
  - delay: 2
    duration: 3
    text: You're not here.
  wwEvent:
    idInternal: 0
    valueGuidInternal: 
    WwiseObjectReference: {fileID: 11400000, guid: fd5c10568a8343b45aa28c3144ac281e,
      type: 2}
