%YAML 1.1
%TAG !u! tag:unity3d.com,2011:
--- !u!114 &11400000
MonoBehaviour:
  m_ObjectHideFlags: 0
  m_CorrespondingSourceObject: {fileID: 0}
  m_PrefabInstance: {fileID: 0}
  m_PrefabAsset: {fileID: 0}
  m_GameObject: {fileID: 0}
  m_Enabled: 1
  m_EditorHideFlags: 0
  m_Script: {fileID: 11500000, guid: a3c8277ca9eb40140a64e21ba4227a74, type: 3}
  m_Name: 2.1-G
  m_EditorClassIdentifier: 
  lineInfos:
  - delay: 1
    duration: 5
    text: Is that you V.? ... Please talk to me.
  wwEvent:
    idInternal: 0
    valueGuidInternal: 
    WwiseObjectReference: {fileID: 11400000, guid: 27a58ada62d437e4ba0ca699a793e4fa,
      type: 2}
