%YAML 1.1
%TAG !u! tag:unity3d.com,2011:
--- !u!114 &11400000
MonoBehaviour:
  m_ObjectHideFlags: 0
  m_CorrespondingSourceObject: {fileID: 0}
  m_PrefabInstance: {fileID: 0}
  m_PrefabAsset: {fileID: 0}
  m_GameObject: {fileID: 0}
  m_Enabled: 1
  m_EditorHideFlags: 0
  m_Script: {fileID: 11500000, guid: a3c8277ca9eb40140a64e21ba4227a74, type: 3}
  m_Name: 4.7-S&C
  m_EditorClassIdentifier: 
  approxDuration: 0
  lineInfos:
  - delay: 1
    duration: 4
    text: "Don\u2019t go! \rStay here! Go there! \rYou must go there."
  wwEvent:
    idInternal: 0
    valueGuidInternal: 
    WwiseObjectReference: {fileID: 11400000, guid: b631da124ed25e04c81bca614c223f9e,
      type: 2}
