%YAML 1.1
%TAG !u! tag:unity3d.com,2011:
--- !u!114 &11400000
MonoBehaviour:
  m_ObjectHideFlags: 0
  m_CorrespondingSourceObject: {fileID: 0}
  m_PrefabInstance: {fileID: 0}
  m_PrefabAsset: {fileID: 0}
  m_GameObject: {fileID: 0}
  m_Enabled: 1
  m_EditorHideFlags: 0
  m_Script: {fileID: 11500000, guid: a3c8277ca9eb40140a64e21ba4227a74, type: 3}
  m_Name: 6.0-UC
  m_EditorClassIdentifier: 
  lineInfos:
  - delay: 7
    duration: 2
    text: "We finally found the Scyll\u2019 Bay."
  - delay: 0
    duration: 2
    text: 
  - delay: 0
    duration: 5
    text: "5 months since it went AOL. \rMeteor rain in the Ur central plain. Analyses
      were certain. "
  - delay: 0
    duration: 2
    text: 
  - delay: 0
    duration: 7
    text: The Entities are now used to various ends by central authorities.
  - delay: 0
    duration: 6
    text: We barely have access to the excavation sites now. And our work is restricted
      to daily maintenance.
  - delay: 6
    duration: 4
    text: "Entities too, are in agony\u2026"
  wwEvent:
    idInternal: 0
    valueGuidInternal: 
    WwiseObjectReference: {fileID: 11400000, guid: a12eec3fdeed02c4da7387de0109e557,
      type: 2}
