%YAML 1.1
%TAG !u! tag:unity3d.com,2011:
--- !u!114 &11400000
MonoBehaviour:
  m_ObjectHideFlags: 0
  m_CorrespondingSourceObject: {fileID: 0}
  m_PrefabInstance: {fileID: 0}
  m_PrefabAsset: {fileID: 0}
  m_GameObject: {fileID: 0}
  m_Enabled: 1
  m_EditorHideFlags: 0
  m_Script: {fileID: 11500000, guid: a3c8277ca9eb40140a64e21ba4227a74, type: 3}
  m_Name: 7.1-UC
  m_EditorClassIdentifier: 
  lineInfos:
  - delay: 2
    duration: 7
    text: If you hear this, V. ...
  - delay: 1
    duration: 9
    text: Then you are alone now.
  - delay: 1
    duration: 10
    text: You probably have reached your goal by now.
  - delay: 0
    duration: 6
    text: At least I hope so.
  - delay: 1
    duration: 7
    text: The structure is the problem.
  - delay: 2
    duration: 5
    text: We did not understand.
  - delay: 0
    duration: 11
    text: We are ghosts. Dead before living.
  wwEvent:
    idInternal: 0
    valueGuidInternal: 
    WwiseObjectReference: {fileID: 11400000, guid: 3ad793140dc46ff4aa8c25bec353b4dc,
      type: 2}
