%YAML 1.1
%TAG !u! tag:unity3d.com,2011:
--- !u!114 &11400000
MonoBehaviour:
  m_ObjectHideFlags: 0
  m_CorrespondingSourceObject: {fileID: 0}
  m_PrefabInstance: {fileID: 0}
  m_PrefabAsset: {fileID: 0}
  m_GameObject: {fileID: 0}
  m_Enabled: 1
  m_EditorHideFlags: 0
  m_Script: {fileID: 11500000, guid: 175a496701d50b24187db7329d22ecc3, type: 3}
  m_Name: C0972CEE-2A40-4F08-B034-261FE2E721EE
  m_EditorClassIdentifier: 
  objectName: ThemeVolume
  id: 4136678742
  guid: C0972CEE-2A40-4F08-B034-261FE2E721EE
