%YAML 1.1
%TAG !u! tag:unity3d.com,2011:
--- !u!114 &11400000
MonoBehaviour:
  m_ObjectHideFlags: 0
  m_CorrespondingSourceObject: {fileID: 0}
  m_PrefabInstance: {fileID: 0}
  m_PrefabAsset: {fileID: 0}
  m_GameObject: {fileID: 0}
  m_Enabled: 1
  m_EditorHideFlags: 0
  m_Script: {fileID: 11500000, guid: 175a496701d50b24187db7329d22ecc3, type: 3}
  m_Name: CAA29A61-A5A1-4FE2-BB76-2B4E41D0BA5D
  m_EditorClassIdentifier: 
  objectName: Volume_MASTER
  id: 3695994288
  guid: CAA29A61-A5A1-4FE2-BB76-2B4E41D0BA5D
