%YAML 1.1
%TAG !u! tag:unity3d.com,2011:
--- !u!65 &2052292677480533045
BoxCollider:
  m_ObjectHideFlags: 0
  m_CorrespondingSourceObject: {fileID: 0}
  m_PrefabInstance: {fileID: 0}
  m_PrefabAsset: {fileID: 0}
  m_GameObject: {fileID: 2185820285956166516}
  m_Material: {fileID: 0}
  m_IsTrigger: 0
  m_Enabled: 1
  serializedVersion: 2
  m_Size: {x: 1.5, y: 3, z: 0.19999999}
  m_Center: {x: 0, y: 0, z: 0}
--- !u!114 &6515935547072523539
MonoBehaviour:
  m_ObjectHideFlags: 0
  m_CorrespondingSourceObject: {fileID: 0}
  m_PrefabInstance: {fileID: 0}
  m_PrefabAsset: {fileID: 0}
  m_GameObject: {fileID: 2185820285956166516}
  m_Enabled: 1
  m_EditorHideFlags: 0
  m_Script: {fileID: 11500000, guid: 5ca9e8b378498434b980e789be3c91c5, type: 3}
  m_Name: 
  m_EditorClassIdentifier: 
  typeName: 
  generator: {fileID: 0}
  handler:
    roomTileset: {fileID: 0}
    cape: 0
    parent: {fileID: 0}
    nbWalls: 0
    height: 0
    prevNbWalls: 0
    prevHeight: 0
    alignDirection: {x: 0, y: 0, z: 0}
    wallDimensions: {x: 0, y: 0, z: 0}
    startOffset: {x: 0, y: 0, z: 0}
    floorParents: []
    initialized: 0
  renderers:
  - {fileID: 461972955741595560}
  floor: 0
--- !u!1001 &7887064012088527485
PrefabInstance:
  m_ObjectHideFlags: 0
  serializedVersion: 2
  m_Modification:
    m_TransformParent: {fileID: 0}
    m_Modifications:
    - target: {fileID: -4216859302048453862, guid: b3840c0c3fb501a4da169dc6c98a238b,
        type: 3}
      propertyPath: m_LocalPosition.x
      value: -0
      objectReference: {fileID: 0}
    - target: {fileID: -4216859302048453862, guid: b3840c0c3fb501a4da169dc6c98a238b,
        type: 3}
      propertyPath: m_LocalPosition.y
      value: 0
      objectReference: {fileID: 0}
    - target: {fileID: -4216859302048453862, guid: b3840c0c3fb501a4da169dc6c98a238b,
        type: 3}
      propertyPath: m_LocalPosition.z
      value: 0
      objectReference: {fileID: 0}
    - target: {fileID: -4216859302048453862, guid: b3840c0c3fb501a4da169dc6c98a238b,
        type: 3}
      propertyPath: m_LocalRotation.x
      value: 0
      objectReference: {fileID: 0}
    - target: {fileID: -4216859302048453862, guid: b3840c0c3fb501a4da169dc6c98a238b,
        type: 3}
      propertyPath: m_LocalRotation.y
      value: 1
      objectReference: {fileID: 0}
    - target: {fileID: -4216859302048453862, guid: b3840c0c3fb501a4da169dc6c98a238b,
        type: 3}
      propertyPath: m_LocalRotation.z
      value: 0
      objectReference: {fileID: 0}
    - target: {fileID: -4216859302048453862, guid: b3840c0c3fb501a4da169dc6c98a238b,
        type: 3}
      propertyPath: m_LocalRotation.w
      value: 0
      objectReference: {fileID: 0}
    - target: {fileID: -4216859302048453862, guid: b3840c0c3fb501a4da169dc6c98a238b,
        type: 3}
      propertyPath: m_RootOrder
      value: 0
      objectReference: {fileID: 0}
    - target: {fileID: -4216859302048453862, guid: b3840c0c3fb501a4da169dc6c98a238b,
        type: 3}
      propertyPath: m_LocalEulerAnglesHint.x
      value: 0
      objectReference: {fileID: 0}
    - target: {fileID: -4216859302048453862, guid: b3840c0c3fb501a4da169dc6c98a238b,
        type: 3}
      propertyPath: m_LocalEulerAnglesHint.y
      value: 180
      objectReference: {fileID: 0}
    - target: {fileID: -4216859302048453862, guid: b3840c0c3fb501a4da169dc6c98a238b,
        type: 3}
      propertyPath: m_LocalEulerAnglesHint.z
      value: 0
      objectReference: {fileID: 0}
    - target: {fileID: -1504981713932161579, guid: b3840c0c3fb501a4da169dc6c98a238b,
        type: 3}
      propertyPath: m_Materials.Array.data[0]
      value: 
      objectReference: {fileID: 2100000, guid: 886635036a482734f97be6f8964e086c, type: 2}
    - target: {fileID: -927199367670048503, guid: b3840c0c3fb501a4da169dc6c98a238b,
        type: 3}
      propertyPath: m_Name
      value: Wall_Simple_Geo Variant
      objectReference: {fileID: 0}
    m_RemovedComponents: []
  m_SourcePrefab: {fileID: 100100000, guid: b3840c0c3fb501a4da169dc6c98a238b, type: 3}
--- !u!1 &2185820285956166516 stripped
GameObject:
  m_CorrespondingSourceObject: {fileID: -927199367670048503, guid: b3840c0c3fb501a4da169dc6c98a238b,
    type: 3}
  m_PrefabInstance: {fileID: 7887064012088527485}
  m_PrefabAsset: {fileID: 0}
--- !u!23 &461972955741595560 stripped
MeshRenderer:
  m_CorrespondingSourceObject: {fileID: -1504981713932161579, guid: b3840c0c3fb501a4da169dc6c98a238b,
    type: 3}
  m_PrefabInstance: {fileID: 7887064012088527485}
  m_PrefabAsset: {fileID: 0}
