%YAML 1.1
%TAG !u! tag:unity3d.com,2011:
--- !u!1001 &841550921230357443
PrefabInstance:
  m_ObjectHideFlags: 0
  serializedVersion: 2
  m_Modification:
    m_TransformParent: {fileID: 0}
    m_Modifications:
    - target: {fileID: 811687373029006825, guid: ff4edea71f7629c45a32936657584068,
        type: 3}
      propertyPath: m_Name
      value: Big_Painting Variant
      objectReference: {fileID: 0}
    - target: {fileID: 4402524295520497658, guid: ff4edea71f7629c45a32936657584068,
        type: 3}
      propertyPath: m_LocalPosition.x
      value: 130.55057
      objectReference: {fileID: 0}
    - target: {fileID: 4402524295520497658, guid: ff4edea71f7629c45a32936657584068,
        type: 3}
      propertyPath: m_LocalPosition.y
      value: 2.4738798
      objectReference: {fileID: 0}
    - target: {fileID: 4402524295520497658, guid: ff4edea71f7629c45a32936657584068,
        type: 3}
      propertyPath: m_LocalPosition.z
      value: -22.65
      objectReference: {fileID: 0}
    - target: {fileID: 4402524295520497658, guid: ff4edea71f7629c45a32936657584068,
        type: 3}
      propertyPath: m_LocalRotation.x
      value: 0
      objectReference: {fileID: 0}
    - target: {fileID: 4402524295520497658, guid: ff4edea71f7629c45a32936657584068,
        type: 3}
      propertyPath: m_LocalRotation.y
      value: -0
      objectReference: {fileID: 0}
    - target: {fileID: 4402524295520497658, guid: ff4edea71f7629c45a32936657584068,
        type: 3}
      propertyPath: m_LocalRotation.z
      value: -0
      objectReference: {fileID: 0}
    - target: {fileID: 4402524295520497658, guid: ff4edea71f7629c45a32936657584068,
        type: 3}
      propertyPath: m_LocalRotation.w
      value: 1
      objectReference: {fileID: 0}
    - target: {fileID: 4402524295520497658, guid: ff4edea71f7629c45a32936657584068,
        type: 3}
      propertyPath: m_RootOrder
      value: 0
      objectReference: {fileID: 0}
    - target: {fileID: 4402524295520497658, guid: ff4edea71f7629c45a32936657584068,
        type: 3}
      propertyPath: m_LocalEulerAnglesHint.x
      value: 0
      objectReference: {fileID: 0}
    - target: {fileID: 4402524295520497658, guid: ff4edea71f7629c45a32936657584068,
        type: 3}
      propertyPath: m_LocalEulerAnglesHint.y
      value: 0
      objectReference: {fileID: 0}
    - target: {fileID: 4402524295520497658, guid: ff4edea71f7629c45a32936657584068,
        type: 3}
      propertyPath: m_LocalEulerAnglesHint.z
      value: 0
      objectReference: {fileID: 0}
    m_RemovedComponents: []
  m_SourcePrefab: {fileID: 100100000, guid: ff4edea71f7629c45a32936657584068, type: 3}
