%YAML 1.1
%TAG !u! tag:unity3d.com,2011:
--- !u!1001 &5894851852525056477
PrefabInstance:
  m_ObjectHideFlags: 0
  serializedVersion: 2
  m_Modification:
    m_TransformParent: {fileID: 0}
    m_Modifications:
    - target: {fileID: 4554152205538337989, guid: c5a5c79f41a230b44a1498ef98f36f17,
        type: 3}
      propertyPath: m_Materials.Array.data[0]
      value: 
      objectReference: {fileID: 2100000, guid: 9d44a44cc2cc64e42b3b2673c2ee7ccf, type: 2}
    - target: {fileID: 6140720007912030588, guid: c5a5c79f41a230b44a1498ef98f36f17,
        type: 3}
      propertyPath: m_Name
      value: Wall_Geo_Door Variant 5
      objectReference: {fileID: 0}
    - target: {fileID: 7161675134140281711, guid: c5a5c79f41a230b44a1498ef98f36f17,
        type: 3}
      propertyPath: m_RootOrder
      value: 0
      objectReference: {fileID: 0}
    - target: {fileID: 7161675134140281711, guid: c5a5c79f41a230b44a1498ef98f36f17,
        type: 3}
      propertyPath: m_LocalEulerAnglesHint.x
      value: 0
      objectReference: {fileID: 0}
    - target: {fileID: 7161675134140281711, guid: c5a5c79f41a230b44a1498ef98f36f17,
        type: 3}
      propertyPath: m_LocalEulerAnglesHint.y
      value: 0
      objectReference: {fileID: 0}
    - target: {fileID: 7161675134140281711, guid: c5a5c79f41a230b44a1498ef98f36f17,
        type: 3}
      propertyPath: m_LocalEulerAnglesHint.z
      value: 0
      objectReference: {fileID: 0}
    m_RemovedComponents: []
  m_SourcePrefab: {fileID: 100100000, guid: c5a5c79f41a230b44a1498ef98f36f17, type: 3}
