%YAML 1.1
%TAG !u! tag:unity3d.com,2011:
--- !u!65 &3834509399364946353
BoxCollider:
  m_ObjectHideFlags: 0
  m_CorrespondingSourceObject: {fileID: 0}
  m_PrefabInstance: {fileID: 0}
  m_PrefabAsset: {fileID: 0}
  m_GameObject: {fileID: 2951119396987987573}
  m_Material: {fileID: 0}
  m_IsTrigger: 0
  m_Enabled: 1
  serializedVersion: 2
  m_Size: {x: 1.5, y: 0.049999997, z: 1.5}
  m_Center: {x: 0, y: 0, z: 0}
--- !u!114 &5138438893270927534
MonoBehaviour:
  m_ObjectHideFlags: 0
  m_CorrespondingSourceObject: {fileID: 0}
  m_PrefabInstance: {fileID: 0}
  m_PrefabAsset: {fileID: 0}
  m_GameObject: {fileID: 2951119396987987573}
  m_Enabled: 1
  m_EditorHideFlags: 0
  m_Script: {fileID: 11500000, guid: e49bd2adce441d1449e4f0c5204a0823, type: 3}
  m_Name: 
  m_EditorClassIdentifier: 
  typeName: 
  generator: {fileID: 0}
  handler:
    roomTileset: {fileID: 0}
    isFloor: 0
    parent: {fileID: 0}
    dimensions: {x: 0, y: 0, z: 0}
    wallDimensions: {x: 0, y: 0, z: 0}
    roomDimensions: {x: 0, y: 0, z: 0}
    tiles: []
    roomPart: 0
    initialized: 0
  renderers: []
--- !u!1001 &6617360578852994940
PrefabInstance:
  m_ObjectHideFlags: 0
  serializedVersion: 2
  m_Modification:
    m_TransformParent: {fileID: 0}
    m_Modifications:
    - target: {fileID: -4216859302048453862, guid: fbae4687b91a9b7498dad9576d514d43,
        type: 3}
      propertyPath: m_LocalPosition.x
      value: -0
      objectReference: {fileID: 0}
    - target: {fileID: -4216859302048453862, guid: fbae4687b91a9b7498dad9576d514d43,
        type: 3}
      propertyPath: m_LocalPosition.y
      value: 0
      objectReference: {fileID: 0}
    - target: {fileID: -4216859302048453862, guid: fbae4687b91a9b7498dad9576d514d43,
        type: 3}
      propertyPath: m_LocalPosition.z
      value: 0
      objectReference: {fileID: 0}
    - target: {fileID: -4216859302048453862, guid: fbae4687b91a9b7498dad9576d514d43,
        type: 3}
      propertyPath: m_LocalRotation.x
      value: 0
      objectReference: {fileID: 0}
    - target: {fileID: -4216859302048453862, guid: fbae4687b91a9b7498dad9576d514d43,
        type: 3}
      propertyPath: m_LocalRotation.y
      value: -0
      objectReference: {fileID: 0}
    - target: {fileID: -4216859302048453862, guid: fbae4687b91a9b7498dad9576d514d43,
        type: 3}
      propertyPath: m_LocalRotation.z
      value: -0
      objectReference: {fileID: 0}
    - target: {fileID: -4216859302048453862, guid: fbae4687b91a9b7498dad9576d514d43,
        type: 3}
      propertyPath: m_LocalRotation.w
      value: 1
      objectReference: {fileID: 0}
    - target: {fileID: -4216859302048453862, guid: fbae4687b91a9b7498dad9576d514d43,
        type: 3}
      propertyPath: m_RootOrder
      value: 0
      objectReference: {fileID: 0}
    - target: {fileID: -4216859302048453862, guid: fbae4687b91a9b7498dad9576d514d43,
        type: 3}
      propertyPath: m_LocalEulerAnglesHint.x
      value: 0
      objectReference: {fileID: 0}
    - target: {fileID: -4216859302048453862, guid: fbae4687b91a9b7498dad9576d514d43,
        type: 3}
      propertyPath: m_LocalEulerAnglesHint.y
      value: 0
      objectReference: {fileID: 0}
    - target: {fileID: -4216859302048453862, guid: fbae4687b91a9b7498dad9576d514d43,
        type: 3}
      propertyPath: m_LocalEulerAnglesHint.z
      value: 0
      objectReference: {fileID: 0}
    - target: {fileID: -1504981713932161579, guid: fbae4687b91a9b7498dad9576d514d43,
        type: 3}
      propertyPath: m_Materials.Array.data[0]
      value: 
      objectReference: {fileID: 2100000, guid: 65c5a9e32ad0f724a917e582be29e518, type: 2}
    - target: {fileID: -927199367670048503, guid: fbae4687b91a9b7498dad9576d514d43,
        type: 3}
      propertyPath: m_Name
      value: Ceiling_Tile_Geo Variant
      objectReference: {fileID: 0}
    m_RemovedComponents: []
  m_SourcePrefab: {fileID: 100100000, guid: fbae4687b91a9b7498dad9576d514d43, type: 3}
--- !u!1 &2951119396987987573 stripped
GameObject:
  m_CorrespondingSourceObject: {fileID: -927199367670048503, guid: fbae4687b91a9b7498dad9576d514d43,
    type: 3}
  m_PrefabInstance: {fileID: 6617360578852994940}
  m_PrefabAsset: {fileID: 0}
