%YAML 1.1
%TAG !u! tag:unity3d.com,2011:
--- !u!1001 &2016219095273002540
PrefabInstance:
  m_ObjectHideFlags: 0
  serializedVersion: 2
  m_Modification:
    m_TransformParent: {fileID: 0}
    m_Modifications:
    - target: {fileID: 6772532015587979257, guid: 5e33377322a49e8428505de3e8ab922e,
        type: 3}
      propertyPath: m_Name
      value: Rug_Geo Variant
      objectReference: {fileID: 0}
    - target: {fileID: 7757314176351084010, guid: 5e33377322a49e8428505de3e8ab922e,
        type: 3}
      propertyPath: m_RootOrder
      value: 0
      objectReference: {fileID: 0}
    - target: {fileID: 7757314176351084010, guid: 5e33377322a49e8428505de3e8ab922e,
        type: 3}
      propertyPath: m_LocalEulerAnglesHint.x
      value: 0
      objectReference: {fileID: 0}
    - target: {fileID: 7757314176351084010, guid: 5e33377322a49e8428505de3e8ab922e,
        type: 3}
      propertyPath: m_LocalEulerAnglesHint.y
      value: 0
      objectReference: {fileID: 0}
    - target: {fileID: 7757314176351084010, guid: 5e33377322a49e8428505de3e8ab922e,
        type: 3}
      propertyPath: m_LocalEulerAnglesHint.z
      value: 0
      objectReference: {fileID: 0}
    m_RemovedComponents: []
  m_SourcePrefab: {fileID: 100100000, guid: 5e33377322a49e8428505de3e8ab922e, type: 3}
