%YAML 1.1
%TAG !u! tag:unity3d.com,2011:
--- !u!1001 &370846297699361853
PrefabInstance:
  m_ObjectHideFlags: 0
  serializedVersion: 2
  m_Modification:
    m_TransformParent: {fileID: 0}
    m_Modifications:
    - target: {fileID: 2211024065746768998, guid: eb6bec19fe8b19447afba5f5efb117d8,
        type: 3}
      propertyPath: m_LocalPosition.x
      value: -0
      objectReference: {fileID: 0}
    - target: {fileID: 2211024065746768998, guid: eb6bec19fe8b19447afba5f5efb117d8,
        type: 3}
      propertyPath: m_LocalPosition.y
      value: 0
      objectReference: {fileID: 0}
    - target: {fileID: 2211024065746768998, guid: eb6bec19fe8b19447afba5f5efb117d8,
        type: 3}
      propertyPath: m_LocalPosition.z
      value: 0
      objectReference: {fileID: 0}
    - target: {fileID: 2211024065746768998, guid: eb6bec19fe8b19447afba5f5efb117d8,
        type: 3}
      propertyPath: m_LocalRotation.x
      value: 0
      objectReference: {fileID: 0}
    - target: {fileID: 2211024065746768998, guid: eb6bec19fe8b19447afba5f5efb117d8,
        type: 3}
      propertyPath: m_LocalRotation.y
      value: -0
      objectReference: {fileID: 0}
    - target: {fileID: 2211024065746768998, guid: eb6bec19fe8b19447afba5f5efb117d8,
        type: 3}
      propertyPath: m_LocalRotation.z
      value: -0
      objectReference: {fileID: 0}
    - target: {fileID: 2211024065746768998, guid: eb6bec19fe8b19447afba5f5efb117d8,
        type: 3}
      propertyPath: m_LocalRotation.w
      value: 1
      objectReference: {fileID: 0}
    - target: {fileID: 2211024065746768998, guid: eb6bec19fe8b19447afba5f5efb117d8,
        type: 3}
      propertyPath: m_RootOrder
      value: 0
      objectReference: {fileID: 0}
    - target: {fileID: 2211024065746768998, guid: eb6bec19fe8b19447afba5f5efb117d8,
        type: 3}
      propertyPath: m_LocalEulerAnglesHint.x
      value: 0
      objectReference: {fileID: 0}
    - target: {fileID: 2211024065746768998, guid: eb6bec19fe8b19447afba5f5efb117d8,
        type: 3}
      propertyPath: m_LocalEulerAnglesHint.y
      value: 0
      objectReference: {fileID: 0}
    - target: {fileID: 2211024065746768998, guid: eb6bec19fe8b19447afba5f5efb117d8,
        type: 3}
      propertyPath: m_LocalEulerAnglesHint.z
      value: 0
      objectReference: {fileID: 0}
    - target: {fileID: 2951119396987987573, guid: eb6bec19fe8b19447afba5f5efb117d8,
        type: 3}
      propertyPath: m_Name
      value: Floor_Tile_Geo Variant
      objectReference: {fileID: 0}
    m_RemovedComponents: []
  m_SourcePrefab: {fileID: 100100000, guid: eb6bec19fe8b19447afba5f5efb117d8, type: 3}
