%YAML 1.1
%TAG !u! tag:unity3d.com,2011:
--- !u!114 &11400000
MonoBehaviour:
  m_ObjectHideFlags: 0
  m_CorrespondingSourceObject: {fileID: 0}
  m_PrefabInstance: {fileID: 0}
  m_PrefabAsset: {fileID: 0}
  m_GameObject: {fileID: 0}
  m_Enabled: 1
  m_EditorHideFlags: 0
  m_Script: {fileID: 11500000, guid: 00eca519bb8d7464f93b157892de264c, type: 3}
  m_Name: 53F55E37-AF4B-4511-907E-B5CC45331C4B
  m_EditorClassIdentifier: 
  objectName: NiveauxAngoisses
  id: 2708581533
  guid: 53F55E37-AF4B-4511-907E-B5CC45331C4B
